{
"type": "FeatureCollection",
"name": "labels_choropleth",
"crs": { "type": "name", "properties": { "name": "urn:ogc:def:crs:OGC:1.3:CRS84" } },
"features": [
{ "type": "Feature", "properties": { "OBJECTID": 893, "State": "Schleswig-Holstein" }, "geometry": { "type": "MultiPolygon", "coordinates": [ [ [ [ 10.430139265684426, 54.139374232192317 ], [ 10.410292685793975, 54.137284395136398 ], [ 10.409068308466894, 54.13704156014245 ], [ 10.386569502540123, 54.132054273779104 ], [ 10.343841573034283, 54.121637059905211 ], [ 10.341843707964905, 54.121001113840258 ], [ 10.339875960432936, 54.119754784944206 ], [ 10.339191508410121, 54.119461817517895 ], [ 10.336436048339694, 54.11838853905315 ], [ 10.335300249929066, 54.118334270859009 ], [ 10.333585795949537, 54.118697241117459 ], [ 10.331052252740857, 54.11925094851199 ], [ 10.32407721960741, 54.121707172255199 ], [ 10.296805708628712, 54.126370452703959 ], [ 10.288646921518387, 54.127494614570935 ], [ 10.280538263700185, 54.149576314118619 ], [ 10.283824293160231, 54.150161273614941 ], [ 10.307261582865276, 54.150317341159415 ], [ 10.313057759224034, 54.149746750262558 ], [ 10.319046469209317, 54.149149891141768 ], [ 10.324698406348015, 54.14849742361136 ], [ 10.331258543681274, 54.147474427395935 ], [ 10.342544676058026, 54.146211542256601 ], [ 10.352090863823303, 54.145669823631728 ], [ 10.363575069850961, 54.145089076651963 ], [ 10.375617161007884, 54.148273924098667 ], [ 10.38867361813876, 54.150890881078084 ], [ 10.413218476821484, 54.150119793578106 ], [ 10.434293474674039, 54.151868088092073 ], [ 10.439182116292889, 54.154059399153027 ], [ 10.430139265684426, 54.139374232192317 ] ] ] ] } },
{ "type": "Feature", "properties": { "OBJECTID": 1158, "State": "Hamburg" }, "geometry": { "type": "MultiPolygon", "coordinates": [ [ [ [ 10.589029215070205, 53.710206787443127 ], [ 10.588396438856565, 53.707545851028257 ], [ 10.586931902492916, 53.702546892351762 ], [ 10.585211171631292, 53.69954179846993 ], [ 10.577051830715339, 53.688443231809565 ], [ 10.57694622058202, 53.688389052726329 ], [ 10.574853969128236, 53.688716088572143 ], [ 10.573169043376353, 53.689250791763627 ], [ 10.569211810072678, 53.691988646306505 ], [ 10.564432227449863, 53.691069601740281 ], [ 10.561546098596065, 53.690217316605235 ], [ 10.552881495712619, 53.684220734030468 ], [ 10.55256177228258, 53.682080387559829 ], [ 10.555504298578967, 53.680389730763309 ], [ 10.55618094170196, 53.679573346852479 ], [ 10.555734310917018, 53.675955972094293 ], [ 10.554813112838131, 53.670010537921627 ], [ 10.548615513107, 53.663191891889348 ], [ 10.547140409714146, 53.661761863408913 ], [ 10.540189541638776, 53.658945161176064 ], [ 10.538688336591839, 53.659309224744661 ], [ 10.535631239543568, 53.659318352636021 ], [ 10.536570623613828, 53.657344415450048 ], [ 10.538604495574532, 53.654753671296675 ], [ 10.554589949803422, 53.649387755213205 ], [ 10.560920856807904, 53.64732256614586 ], [ 10.562162898717302, 53.647137231873764 ], [ 10.563873386150231, 53.647025019480772 ], [ 10.564539071097073, 53.647026800456011 ], [ 10.566016987167712, 53.647659683198683 ], [ 10.567042070497838, 53.64815657534124 ], [ 10.578261004579062, 53.64292964244143 ], [ 10.59046747583027, 53.631991439938368 ], [ 10.593652982590584, 53.626624406086755 ], [ 10.593977426579668, 53.625627854736365 ], [ 10.592584175506012, 53.623737587154984 ], [ 10.590765855722958, 53.62210682209551 ], [ 10.605505745306436, 53.615708880617177 ], [ 10.617119509990815, 53.612914205347181 ], [ 10.600891602183907, 53.60268740735377 ], [ 10.584310429676723, 53.592205887142285 ], [ 10.590890309465552, 53.569147226438027 ], [ 10.5968079645573, 53.563267542667447 ], [ 10.591118613426277, 53.563898411178698 ], [ 10.558634071269449, 53.563241298554878 ], [ 10.549675385935933, 53.558022864184494 ], [ 10.549029711324366, 53.557571772775574 ], [ 10.548158932266938, 53.556949318387488 ], [ 10.547441586031207, 53.556021776326723 ], [ 10.542800559123517, 53.545513297566544 ], [ 10.544510787496822, 53.541178036204911 ], [ 10.552449036690303, 53.539331285812764 ], [ 10.548239316969356, 53.529720801257263 ], [ 10.54761744237096, 53.528092295762363 ], [ 10.546510643750111, 53.52420957624912 ], [ 10.54794092311446, 53.518984471018612 ], [ 10.558560840495533, 53.500169303217795 ], [ 10.559063257861983, 53.499541644179885 ], [ 10.560001273255684, 53.499130835481076 ], [ 10.582002826955266, 53.49195758701304 ], [ 10.583798596260589, 53.491878538232534 ], [ 10.585067217911567, 53.491822677570234 ], [ 10.595634701801195, 53.493418018344734 ], [ 10.605959546484296, 53.499238209502181 ], [ 10.619303406313094, 53.484962826409415 ], [ 10.619366641333995, 53.484495684742335 ], [ 10.617825829260292, 53.482641065181028 ], [ 10.616985592598169, 53.48203709311764 ], [ 10.615496878809624, 53.481494549570542 ], [ 10.61430871811203, 53.481096452874141 ], [ 10.613965275627098, 53.478247025842855 ], [ 10.617776135323439, 53.476206791928263 ], [ 10.619061015469974, 53.475589623742366 ], [ 10.621055437340397, 53.474767338230599 ], [ 10.621417841465401, 53.474651321657717 ], [ 10.621900353679409, 53.474607460811605 ], [ 10.63203678441675, 53.475546125610649 ], [ 10.644662069814148, 53.458731391845852 ], [ 10.653250743059308, 53.457338332171958 ], [ 10.659684155988801, 53.454331361141215 ], [ 10.668142196060593, 53.447023274529329 ], [ 10.674957157511331, 53.439504946913523 ], [ 10.685265459243549, 53.434535411324561 ], [ 10.693202269703725, 53.430783306330689 ], [ 10.70700441951279, 53.431515125771703 ], [ 10.711536159995868, 53.431477038659267 ], [ 10.721317393187606, 53.428831210282965 ], [ 10.703312383253717, 53.412392774091948 ], [ 10.65539964251222, 53.397716093168164 ], [ 10.646197314611159, 53.388998466337128 ], [ 10.639144192486889, 53.378765133728656 ], [ 10.637876919833509, 53.377763800962711 ], [ 10.636251653727665, 53.376761700322902 ], [ 10.634149497344657, 53.375687230315947 ], [ 10.631926104326862, 53.374945361318076 ], [ 10.629462230425611, 53.374512049828169 ], [ 10.627156366625188, 53.374269260509188 ], [ 10.623814758981917, 53.374261929358831 ], [ 10.573679789814225, 53.375556405470405 ], [ 10.572370888124844, 53.375660820859217 ], [ 10.571046879751892, 53.375774170323695 ], [ 10.569752468935283, 53.375950492830306 ], [ 10.568819177692374, 53.376091812206418 ], [ 10.5669216316823, 53.376491180199274 ], [ 10.566047857087566, 53.376713521732256 ], [ 10.565188976009916, 53.376953871214219 ], [ 10.56473680877947, 53.377096450167649 ], [ 10.564375058596632, 53.37721230939983 ], [ 10.563093305820022, 53.37769415737769 ], [ 10.561977131222125, 53.378149478547016 ], [ 10.560921012432784, 53.378613940163547 ], [ 10.559668636932718, 53.379176715335753 ], [ 10.558415609353181, 53.379820359864887 ], [ 10.556754526341406, 53.380723493112853 ], [ 10.553190146580615, 53.38270875860492 ], [ 10.552479847289453, 53.383156133826915 ], [ 10.550545141199903, 53.384399926754043 ], [ 10.548171492193207, 53.385983956632096 ], [ 10.547611340781804, 53.386449700952596 ], [ 10.546944617369098, 53.387076906659871 ], [ 10.546262049624847, 53.387802920043562 ], [ 10.545746259999689, 53.388358650498006 ], [ 10.54527550539567, 53.388923494306368 ], [ 10.540698037896885, 53.395147355018096 ], [ 10.538624092569295, 53.39675901370898 ], [ 10.536883079219173, 53.398110984756862 ], [ 10.535294311988515, 53.399229714214009 ], [ 10.533767416843896, 53.400132918616556 ], [ 10.532573589476966, 53.400776464494044 ], [ 10.531425752928843, 53.401312291408786 ], [ 10.531138938511404, 53.401428272928015 ], [ 10.529931413016394, 53.401901000587614 ], [ 10.528860164462138, 53.402266279632379 ], [ 10.52806098424735, 53.402479582974621 ], [ 10.527247053239524, 53.402656890056875 ], [ 10.526569125657458, 53.40276270423935 ], [ 10.525861557622692, 53.402814503399554 ], [ 10.525154213594137, 53.402839339149942 ], [ 10.524477188529636, 53.402837300931687 ], [ 10.52377030101143, 53.402808209090942 ], [ 10.522657426906937, 53.402750922451126 ], [ 10.521033258426149, 53.402665112560975 ], [ 10.520025784687272, 53.402599136469711 ], [ 10.519002728085743, 53.402596012266791 ], [ 10.518054588963365, 53.402629058100217 ], [ 10.516895354094606, 53.402715368216619 ], [ 10.515585277407931, 53.402846137101179 ], [ 10.514365149114177, 53.40301311883271 ], [ 10.512888620493081, 53.403251186305134 ], [ 10.51166792196185, 53.403481047294072 ], [ 10.510446895690132, 53.403746843328264 ], [ 10.508667593151065, 53.404190612416997 ], [ 10.507490950577651, 53.404537399925331 ], [ 10.506374155091043, 53.404920313239863 ], [ 10.504909448026623, 53.405508812439443 ], [ 10.504093766444688, 53.405865698802003 ], [ 10.502848765857991, 53.406593242503483 ], [ 10.493062989920348, 53.419193602351335 ], [ 10.492378370793574, 53.419991189321124 ], [ 10.491831254278562, 53.420564552730717 ], [ 10.490996244370267, 53.421343665334483 ], [ 10.490055762046858, 53.422131410796993 ], [ 10.488251539041238, 53.423536384532554 ], [ 10.483354887586721, 53.427231634329445 ], [ 10.482172861102175, 53.428063442074034 ], [ 10.47996048969916, 53.429592732751047 ], [ 10.477840173280763, 53.430924586590088 ], [ 10.475963614449828, 53.431942698002601 ], [ 10.474618040136765, 53.432531232158432 ], [ 10.447168940363422, 53.443110610068345 ], [ 10.445519572587386, 53.442412627014335 ], [ 10.43876939470848, 53.437891990918601 ], [ 10.437536604087521, 53.435355631476767 ], [ 10.437207483906256, 53.430825093252203 ], [ 10.424631723845675, 53.414356000922432 ], [ 10.416946557088279, 53.409808702101664 ], [ 10.41399860485652, 53.40850074271637 ], [ 10.396938291764993, 53.404022599601142 ], [ 10.372916077196868, 53.398440899046932 ], [ 10.372062839010558, 53.399344966948419 ], [ 10.370813699399148, 53.400642772821648 ], [ 10.366287485493737, 53.402951043882766 ], [ 10.358630863415218, 53.406512707361294 ], [ 10.35396230209113, 53.407900603188445 ], [ 10.350319171150652, 53.408883210036286 ], [ 10.344570204543771, 53.410141645054843 ], [ 10.323301448731836, 53.398373085205293 ], [ 10.311845563659393, 53.393259550397076 ], [ 10.301924381193064, 53.394982580845969 ], [ 10.303298846271021, 53.397919008322951 ], [ 10.311593754260414, 53.406025155393543 ], [ 10.316844414718521, 53.415741821362715 ], [ 10.309257170299009, 53.427620758171514 ], [ 10.303831139396841, 53.432581468717167 ], [ 10.300171525234754, 53.434701531849697 ], [ 10.296941746546375, 53.436514321632764 ], [ 10.294595460047196, 53.436788234151976 ], [ 10.291303670260081, 53.436576672363827 ], [ 10.26680030261609, 53.421847346664201 ], [ 10.257844559221702, 53.413269690762256 ], [ 10.25774571311034, 53.409068262654621 ], [ 10.256698432347582, 53.410580884736405 ], [ 10.254494288491916, 53.413245604661924 ], [ 10.233841851379042, 53.428786419961511 ], [ 10.231254477740974, 53.430641783648952 ], [ 10.227537231062694, 53.432526917414265 ], [ 10.2274462188073, 53.432571359287955 ], [ 10.209762438569362, 53.441209980781174 ], [ 10.208966468772159, 53.441618459015572 ], [ 10.19516261330306, 53.448829139200782 ], [ 10.195049932176536, 53.457081288580277 ], [ 10.195310702068729, 53.463145934104176 ], [ 10.196146422019021, 53.467428353405943 ], [ 10.179883007763141, 53.479203373973213 ], [ 10.172646134457308, 53.481698457815213 ], [ 10.170326812251878, 53.482493639497051 ], [ 10.166006679319899, 53.483950956119195 ], [ 10.165809692141234, 53.484012696914178 ], [ 10.164219304670938, 53.484470581908674 ], [ 10.159397277528191, 53.487065987168108 ], [ 10.159152180692772, 53.487298176007805 ], [ 10.1590728886126, 53.487531353775545 ], [ 10.159142671538621, 53.487864273593281 ], [ 10.161560834152041, 53.493800820038167 ], [ 10.160799941168802, 53.520306232979109 ], [ 10.162970860701828, 53.521298640795763 ], [ 10.163376207360203, 53.521417866808619 ], [ 10.1674347138988, 53.522577788661998 ], [ 10.168194522964598, 53.521985521875443 ], [ 10.169321566650357, 53.521345143261627 ], [ 10.173864456950589, 53.519403780253235 ], [ 10.175200169570953, 53.51890834703287 ], [ 10.200118489556596, 53.510568135826972 ], [ 10.202195038659303, 53.509923813745196 ], [ 10.211355650777433, 53.508609003590891 ], [ 10.211884604196882, 53.508540043420965 ], [ 10.212274043113776, 53.5087129401184 ], [ 10.214610471444354, 53.509768266669951 ], [ 10.220165884573174, 53.512377860428892 ], [ 10.220402630872732, 53.51267570297987 ], [ 10.220202268141479, 53.512953182708863 ], [ 10.219548180697993, 53.513309055126513 ], [ 10.206419155482983, 53.518493447765657 ], [ 10.205430044397447, 53.519036085915879 ], [ 10.205364893250307, 53.519341254565354 ], [ 10.205356541253286, 53.519871397604781 ], [ 10.205394292778037, 53.520347880259848 ], [ 10.205735728175981, 53.520700252665328 ], [ 10.206301466769574, 53.521179683699977 ], [ 10.215355335753271, 53.52591171333556 ], [ 10.216074208918926, 53.52625714596671 ], [ 10.217230895701512, 53.526587008041972 ], [ 10.218780283331558, 53.526892053115283 ], [ 10.219413668711944, 53.526913495808401 ], [ 10.221771280019908, 53.526665781410969 ], [ 10.223227643372482, 53.526152519815035 ], [ 10.243013347982794, 53.522772013774073 ], [ 10.256771990712201, 53.520750171240515 ], [ 10.273538220346747, 53.519308116381794 ], [ 10.305663776348615, 53.518710933842897 ], [ 10.321850441235858, 53.518715313285988 ], [ 10.329795366591688, 53.51911141736722 ], [ 10.330559268919608, 53.521096460047779 ], [ 10.331094493818499, 53.522487160031353 ], [ 10.331382210500541, 53.523575793827035 ], [ 10.328968760377016, 53.523537785527424 ], [ 10.323601117982355, 53.523279403015074 ], [ 10.317798887574803, 53.522803087337799 ], [ 10.311537262808425, 53.522845521379764 ], [ 10.279415751433596, 53.524019380078656 ], [ 10.274944478361938, 53.524401366754674 ], [ 10.255271779858274, 53.526367749549479 ], [ 10.251628134985834, 53.526870002115821 ], [ 10.247469705774929, 53.527486266833883 ], [ 10.24335588853792, 53.528138571355854 ], [ 10.236186486676011, 53.529286674691399 ], [ 10.21526450769392, 53.532731720233613 ], [ 10.205550359372996, 53.534385202180552 ], [ 10.199858206071601, 53.535512485842894 ], [ 10.193363081533512, 53.53681466738967 ], [ 10.180356142131382, 53.53944487038769 ], [ 10.14711819799952, 53.542881856167419 ], [ 10.129723164058685, 53.544407235281078 ], [ 10.13876228219738, 53.575994864576501 ], [ 10.138794228977046, 53.576767845831093 ], [ 10.148893684018782, 53.592185985924402 ], [ 10.15141324005409, 53.595085587775621 ], [ 10.153355214485412, 53.597307737692013 ], [ 10.165652226167008, 53.606654086578665 ], [ 10.164249857657152, 53.602030179834721 ], [ 10.165991740697086, 53.595421612068073 ], [ 10.186500755204515, 53.588208761676213 ], [ 10.190300272125299, 53.589239100056609 ], [ 10.185378423217122, 53.583466375178652 ], [ 10.187105663405932, 53.580480642768222 ], [ 10.198793858557931, 53.572353915719482 ], [ 10.211515541561699, 53.565411576228605 ], [ 10.217554910316046, 53.564141460150488 ], [ 10.220316161040605, 53.563719621764044 ], [ 10.22414016405358, 53.564482239502397 ], [ 10.232065426619835, 53.566721857608464 ], [ 10.2427760709219, 53.576156473991759 ], [ 10.257278686114462, 53.586412994327965 ], [ 10.263382200481439, 53.588538000087603 ], [ 10.279211506995274, 53.600730445117733 ], [ 10.292282478886639, 53.614057397929095 ], [ 10.302112107557017, 53.631680191478999 ], [ 10.302398357379948, 53.63176243058922 ], [ 10.304418230274401, 53.632266279162657 ], [ 10.305082216392938, 53.632377270339759 ], [ 10.313053563224305, 53.633466300533115 ], [ 10.317207200641128, 53.633251156515094 ], [ 10.328557860545079, 53.631905781135188 ], [ 10.340734450580344, 53.632119863211834 ], [ 10.343538899417299, 53.630416225312622 ], [ 10.345148178112071, 53.6299292032351 ], [ 10.348056745794148, 53.629546750499401 ], [ 10.360809672172563, 53.628012108724384 ], [ 10.380200193782493, 53.626503964080946 ], [ 10.384298941589455, 53.627751930095734 ], [ 10.385195472468284, 53.628681103976632 ], [ 10.385634892219594, 53.629904899447034 ], [ 10.38663250426567, 53.637704418946328 ], [ 10.386786401854446, 53.640985741161373 ], [ 10.386677222173425, 53.642112135088297 ], [ 10.386245028112221, 53.644164348744823 ], [ 10.385848821342877, 53.646573148976927 ], [ 10.385798927345341, 53.646959300586836 ], [ 10.38577648820195, 53.648882002430149 ], [ 10.385900809574526, 53.649897820232958 ], [ 10.386280989317932, 53.651031494572877 ], [ 10.387776866826066, 53.655116814628201 ], [ 10.388189910964869, 53.656034972119649 ], [ 10.388592845565867, 53.656521809534247 ], [ 10.39405374153659, 53.660659130951089 ], [ 10.431324180102845, 53.661181742490044 ], [ 10.436136963882838, 53.661181711482989 ], [ 10.438145749773632, 53.660128927783227 ], [ 10.441660937826313, 53.658281984412078 ], [ 10.445814532836822, 53.656131771080751 ], [ 10.447870210164499, 53.65636383814094 ], [ 10.46462361839197, 53.658642230476786 ], [ 10.461301067790098, 53.664193386013352 ], [ 10.461021059755675, 53.668186159565387 ], [ 10.463221892849303, 53.674041827595985 ], [ 10.464746169887485, 53.675444937158119 ], [ 10.466788106544296, 53.676215287708459 ], [ 10.47445569183204, 53.683348456826778 ], [ 10.464986372727765, 53.685436309453102 ], [ 10.468163482115679, 53.688825520881323 ], [ 10.464877221438162, 53.690359501928477 ], [ 10.477200364796568, 53.699611753038312 ], [ 10.489527871962542, 53.698406598263304 ], [ 10.497713698494758, 53.696657829564359 ], [ 10.499377930957271, 53.694102513932798 ], [ 10.504284801087945, 53.693589782453969 ], [ 10.513405328828458, 53.693267825823639 ], [ 10.517458868266065, 53.694130430917099 ], [ 10.540342239659561, 53.703959235278077 ], [ 10.563595673986901, 53.717427643269218 ], [ 10.56678409613278, 53.716618559256339 ], [ 10.589029215070205, 53.710206787443127 ] ] ], [ [ [ 10.156588395177803, 53.535656584217278 ], [ 10.166504108121213, 53.534718043373765 ], [ 10.168590378015857, 53.534496698665372 ], [ 10.17437034020125, 53.533801838523786 ], [ 10.175695527897217, 53.532978177003592 ], [ 10.178347226388835, 53.531246821328423 ], [ 10.178656351726925, 53.530799305815975 ], [ 10.178664293666278, 53.530314097320563 ], [ 10.178325355657886, 53.529817887223153 ], [ 10.17764874784031, 53.529670176807436 ], [ 10.173327957282796, 53.529069865390845 ], [ 10.170509207005097, 53.528891596944248 ], [ 10.170041635228632, 53.528879865001279 ], [ 10.169873670311111, 53.528892342601786 ], [ 10.169704404241369, 53.528927227673961 ], [ 10.169510482651466, 53.528995454392025 ], [ 10.169320540911986, 53.529066094608716 ], [ 10.169130277431025, 53.529155869341189 ], [ 10.168935649760007, 53.529252442386635 ], [ 10.169093502166184, 53.530094983070668 ], [ 10.176112194264954, 53.531350642935202 ], [ 10.16959079807167, 53.532774226934286 ], [ 10.13564420091468, 53.536083643319373 ], [ 10.137012707211124, 53.536634233328229 ], [ 10.138127529538981, 53.536748908943018 ], [ 10.156588395177803, 53.535656584217278 ] ] ], [ [ [ 10.127398610824631, 53.536663290077513 ], [ 10.125462290611265, 53.536772583452468 ], [ 10.125673432078031, 53.537210980641184 ], [ 10.127398610824631, 53.536663290077513 ] ] ] ] } },
{ "type": "Feature", "properties": { "OBJECTID": 1341, "State": "Niedersachsen" }, "geometry": { "type": "MultiPolygon", "coordinates": [ [ [ [ 10.20108205765986, 52.636703424898457 ], [ 10.206679949844897, 52.635644003858324 ], [ 10.199463265873494, 52.622477831705275 ], [ 10.20355305739074, 52.621437740674665 ], [ 10.218077224785985, 52.627293559342178 ], [ 10.231176721905021, 52.627241521346619 ], [ 10.275002551376097, 52.618573344522673 ], [ 10.291439585700401, 52.617548912051575 ], [ 10.289223395370726, 52.611903623398405 ], [ 10.289513419718231, 52.609438116454719 ], [ 10.290859853617603, 52.609174277411391 ], [ 10.306898295169436, 52.606745981084899 ], [ 10.310506505932342, 52.608831327059399 ], [ 10.311078862207715, 52.609540417662977 ], [ 10.318992772864453, 52.607843934579968 ], [ 10.317847708772566, 52.605483653254829 ], [ 10.307129273347943, 52.59357970261734 ], [ 10.296403250286959, 52.589664219921978 ], [ 10.287871702910904, 52.584970821189138 ], [ 10.289360153487092, 52.581389308821279 ], [ 10.30855522799143, 52.577326976756922 ], [ 10.311011464803077, 52.571492124483285 ], [ 10.309906440754819, 52.567521612947459 ], [ 10.307824688200281, 52.565349413959552 ], [ 10.305573445206038, 52.563438363486711 ], [ 10.303205771199954, 52.562492788349267 ], [ 10.301495402720235, 52.561874401728225 ], [ 10.298694016763353, 52.561565139976885 ], [ 10.292377859261535, 52.564322331018921 ], [ 10.288871240406433, 52.562978902382213 ], [ 10.28708746659837, 52.54879416573111 ], [ 10.28982292095067, 52.543693362649385 ], [ 10.293357755372469, 52.542564237648747 ], [ 10.297477988683971, 52.540379499370239 ], [ 10.29796555325926, 52.540099562534174 ], [ 10.298366162419988, 52.539725223781446 ], [ 10.303899387158456, 52.528374555706591 ], [ 10.297711366661114, 52.524190361904054 ], [ 10.282438976087629, 52.516984597726214 ], [ 10.266873500609023, 52.50493626040118 ], [ 10.265628373799299, 52.501462105915692 ], [ 10.259523937943609, 52.498001060435847 ], [ 10.247621246587117, 52.493012870141932 ], [ 10.243657494538589, 52.500188312802287 ], [ 10.218364735783853, 52.50858000260434 ], [ 10.208288409281293, 52.505498315836377 ], [ 10.169416294444865, 52.51034249370263 ], [ 10.138180217384482, 52.516783957852475 ], [ 10.13441319049686, 52.520974143143242 ], [ 10.128810609471481, 52.526870091991107 ], [ 10.111275553412526, 52.532683616416207 ], [ 10.105573225454844, 52.535318729605336 ], [ 10.102816593520981, 52.537124083538217 ], [ 10.104110932110439, 52.540135648313203 ], [ 10.104550427729112, 52.540638905880535 ], [ 10.105362137581801, 52.54118989176083 ], [ 10.112310933292207, 52.544459693087141 ], [ 10.116953610724297, 52.544495956187454 ], [ 10.122023590905448, 52.544543517907833 ], [ 10.132069255448538, 52.551724006693291 ], [ 10.131149091317553, 52.553076683749921 ], [ 10.125299928710019, 52.55756649626381 ], [ 10.122443239442996, 52.558224536082207 ], [ 10.118939802809706, 52.558833535506963 ], [ 10.117239028683121, 52.559156339758083 ], [ 10.115532276907203, 52.560792067513368 ], [ 10.112912182450341, 52.56515627680114 ], [ 10.112638641293628, 52.565667267643711 ], [ 10.11252659164918, 52.566224174527953 ], [ 10.112457352472047, 52.566871262857184 ], [ 10.112626926912263, 52.569201447782689 ], [ 10.122029011194334, 52.569757481580204 ], [ 10.129479202198189, 52.569457897938079 ], [ 10.130991897968366, 52.56996465264092 ], [ 10.131646882982857, 52.571611789238389 ], [ 10.131787293064674, 52.572038828251102 ], [ 10.132476622927358, 52.577285935503589 ], [ 10.127647836524126, 52.584936640856014 ], [ 10.142954807818176, 52.599155431225633 ], [ 10.148019591994267, 52.607413502787381 ], [ 10.14212975483052, 52.610572813962911 ], [ 10.133135435459705, 52.611728462307532 ], [ 10.127992080557497, 52.61317686497447 ], [ 10.130314333381101, 52.623586132905587 ], [ 10.132726275211812, 52.628812869374848 ], [ 10.135975462745552, 52.629908214401816 ], [ 10.146912877111424, 52.628220274257302 ], [ 10.15366599227497, 52.626953938998156 ], [ 10.160419410870633, 52.628636810224428 ], [ 10.166836803448886, 52.635146493789783 ], [ 10.20108205765986, 52.636703424898457 ] ] ] ] } },
{ "type": "Feature", "properties": { "OBJECTID": 2117, "State": "Bremen" }, "geometry": { "type": "MultiPolygon", "coordinates": [ [ [ [ 8.819054604353703, 53.259708998040146 ], [ 8.822815045003219, 53.257663152670233 ], [ 8.822417764439852, 53.254147682619994 ], [ 8.825533602276858, 53.251771858799763 ], [ 8.831955495944587, 53.247301993644385 ], [ 8.855419670229741, 53.239018292614361 ], [ 8.868126181433874, 53.244772266680293 ], [ 8.880198646654287, 53.248482015057988 ], [ 8.883710816116626, 53.247979600574588 ], [ 8.887266098687515, 53.247172053042192 ], [ 8.897847169244425, 53.244612612498933 ], [ 8.900759835173945, 53.243758721348321 ], [ 8.900950019022391, 53.24212524131179 ], [ 8.898687072747865, 53.238682349806503 ], [ 8.897533560513656, 53.237648385641521 ], [ 8.896788513291805, 53.237214198597648 ], [ 8.896334265028599, 53.236982345104273 ], [ 8.895343580170801, 53.236688189737848 ], [ 8.891155526487026, 53.235184276231905 ], [ 8.883466814701226, 53.231539383551166 ], [ 8.882818460958806, 53.229919738705668 ], [ 8.881818396435156, 53.224338283267294 ], [ 8.882947446097894, 53.222818427326246 ], [ 8.884128196080106, 53.221829873489767 ], [ 8.894972195505899, 53.21484620991972 ], [ 8.898296714147557, 53.214897963123214 ], [ 8.908612441469106, 53.218875158863426 ], [ 8.910867777848376, 53.220042955382809 ], [ 8.910731549435573, 53.223223843748464 ], [ 8.923493992994839, 53.228338659447708 ], [ 8.928512465622308, 53.228631347370126 ], [ 8.936112828473023, 53.227353745127154 ], [ 8.938921734253686, 53.226074788165569 ], [ 8.955321841806288, 53.214481613164125 ], [ 8.960750384683415, 53.208494185466755 ], [ 8.965176163127536, 53.207855166982895 ], [ 8.972109938689689, 53.208484737139777 ], [ 8.976426887724358, 53.210131695112516 ], [ 8.977041982252452, 53.207560338312199 ], [ 8.977449555167183, 53.206388541605548 ], [ 9.002916906708126, 53.209409042486406 ], [ 9.031022508720346, 53.209423357116037 ], [ 9.03219608311603, 53.206653050725507 ], [ 9.042551233278632, 53.196147736336698 ], [ 9.042967123943832, 53.195848011772611 ], [ 9.043485172365235, 53.195612694683021 ], [ 9.044001070300776, 53.195431291538362 ], [ 9.077116508437625, 53.189896515180614 ], [ 9.077808456325027, 53.189798374830723 ], [ 9.078180474715335, 53.18984857356407 ], [ 9.078605640945321, 53.190070353327961 ], [ 9.083125839938177, 53.194620556725795 ], [ 9.110407418038303, 53.193229553132589 ], [ 9.121497098871444, 53.193903866672677 ], [ 9.129147021584348, 53.193370339565199 ], [ 9.141227419178673, 53.188787653531826 ], [ 9.141547463605272, 53.18863015846496 ], [ 9.141827379410348, 53.188346243877113 ], [ 9.141876618857037, 53.188230028354141 ], [ 9.141991737482172, 53.18795286771396 ], [ 9.142351928735977, 53.186725978837849 ], [ 9.14332643100577, 53.182939753940737 ], [ 9.143317812653843, 53.181060305272304 ], [ 9.143396617832972, 53.180014657162872 ], [ 9.1435762245783, 53.179446155399738 ], [ 9.143985092647833, 53.179094863338278 ], [ 9.163043918118165, 53.167215599927715 ], [ 9.169338745875224, 53.163964102468128 ], [ 9.213864062547954, 53.163831291479475 ], [ 9.219657052160827, 53.169471832621099 ], [ 9.224330651506744, 53.174675046408751 ], [ 9.236565626420905, 53.181341668782729 ], [ 9.238487991626306, 53.182382222614379 ], [ 9.2417301223274, 53.183322705861471 ], [ 9.246803671878471, 53.183225482799585 ], [ 9.258351869826493, 53.178453795673633 ], [ 9.281935120947631, 53.162790478702441 ], [ 9.282358027798322, 53.162229310985971 ], [ 9.285906012946358, 53.157283422209481 ], [ 9.282198682014377, 53.155556087622124 ], [ 9.280605542122764, 53.154942869021887 ], [ 9.279834848361713, 53.154753455961824 ], [ 9.264788642989879, 53.151175567947099 ], [ 9.25704161803885, 53.14405589122245 ], [ 9.271041926536608, 53.13199524173892 ], [ 9.291337029015359, 53.129559545277921 ], [ 9.292437099912402, 53.127963741054657 ], [ 9.292501115357403, 53.127838656557145 ], [ 9.286281385322795, 53.124956418611333 ], [ 9.285368050714537, 53.124585437267342 ], [ 9.283413048826027, 53.12410260041959 ], [ 9.276828296000094, 53.122743817725635 ], [ 9.273489112223121, 53.122126642669826 ], [ 9.272164480537798, 53.121993174416765 ], [ 9.271016515466028, 53.121933834962988 ], [ 9.270257012802011, 53.121870365484746 ], [ 9.269277314250337, 53.121696235173822 ], [ 9.268033268279082, 53.121392899160448 ], [ 9.267397258370016, 53.121214077717525 ], [ 9.266883797498602, 53.120946880889775 ], [ 9.266518379451659, 53.12071750771544 ], [ 9.266080506984403, 53.12042428414626 ], [ 9.265430258876606, 53.119795712531534 ], [ 9.264856540588067, 53.119114152935161 ], [ 9.263097966783418, 53.116430604989311 ], [ 9.268283001866868, 53.098666118370176 ], [ 9.273510570739177, 53.084451716769465 ], [ 9.280976509263805, 53.077061960397863 ], [ 9.265112910435256, 53.068280099272371 ], [ 9.251855973943851, 53.063886308964804 ], [ 9.248754452616984, 53.06241312512131 ], [ 9.247406254573839, 53.061696510916825 ], [ 9.239851196103505, 53.056198134372657 ], [ 9.22610833376628, 53.045087329629538 ], [ 9.21754780665429, 53.042233870458936 ], [ 9.199239596432269, 53.044305471772603 ], [ 9.197935614054675, 53.044495136860945 ], [ 9.196971450546155, 53.044770188406076 ], [ 9.195988792155351, 53.045143899668709 ], [ 9.194972727857854, 53.045616073408496 ], [ 9.193261557267446, 53.046753460404553 ], [ 9.19277095710456, 53.047124645944585 ], [ 9.178784395444239, 53.058952402188751 ], [ 9.168726924328553, 53.072045107790117 ], [ 9.16592720489224, 53.07190868386536 ], [ 9.165526917238656, 53.071840372688854 ], [ 9.165099132688885, 53.07170874877896 ], [ 9.164825111361377, 53.071453300907294 ], [ 9.164330779588113, 53.070700347186516 ], [ 9.163940546212652, 53.069553147865172 ], [ 9.163775608505114, 53.068768645031227 ], [ 9.163587874573038, 53.067390374803544 ], [ 9.163722142973061, 53.066582913672278 ], [ 9.166710618999197, 53.058359500688191 ], [ 9.170327258518869, 53.056132996185596 ], [ 9.168476873108531, 53.053329728043302 ], [ 9.153766102451199, 53.0511085907062 ], [ 9.125964666069907, 53.052042465791125 ], [ 9.125140833128578, 53.052139044102837 ], [ 9.123967725679538, 53.052401660037354 ], [ 9.122655014837903, 53.052806214636568 ], [ 9.12102280011454, 53.053377199514983 ], [ 9.120173116304025, 53.053761134194538 ], [ 9.119468366849281, 53.055159115680304 ], [ 9.119021790662527, 53.056009444157162 ], [ 9.118222992917106, 53.056783517455571 ], [ 9.116942602007967, 53.057765020161 ], [ 9.111204927970793, 53.062116607397876 ], [ 9.091091656555641, 53.068858910970221 ], [ 9.072425524513067, 53.084619464535493 ], [ 9.067627793865515, 53.083661163579791 ], [ 9.06394548125623, 53.082044163490295 ], [ 9.060232904450643, 53.075130296321014 ], [ 9.058904860405578, 53.072098982111427 ], [ 9.03657838091341, 53.065906038115152 ], [ 9.034651913949224, 53.065959069460078 ], [ 9.03382726465243, 53.066064016560254 ], [ 9.033212413313242, 53.066145024538386 ], [ 9.019719101060371, 53.071532784430111 ], [ 9.016474034818195, 53.073571524047303 ], [ 9.013144677868508, 53.075842740812824 ], [ 9.012055425282517, 53.076582109768594 ], [ 9.011521896641581, 53.077230711207008 ], [ 9.009473511055043, 53.082128351669745 ], [ 9.009351657343032, 53.082558185377323 ], [ 9.009267277598692, 53.083537091798945 ], [ 9.009359697534313, 53.084941225773051 ], [ 9.00963329179641, 53.086294066755784 ], [ 9.010705237665825, 53.090787882292034 ], [ 9.011768345315186, 53.095875018567206 ], [ 9.011963063415068, 53.09781052951358 ], [ 9.012093938871203, 53.099638472985575 ], [ 9.01211766169026, 53.100529032641184 ], [ 9.012084244251795, 53.101355809362659 ], [ 9.011816503658842, 53.102808592195508 ], [ 9.01087556898492, 53.107120826629362 ], [ 9.00599640405845, 53.110842894774883 ], [ 9.0024834640655, 53.113506753074979 ], [ 8.990285691748319, 53.116716372303223 ], [ 8.985998321668978, 53.116742611619657 ], [ 8.976979077585028, 53.117795102474183 ], [ 8.97561339344867, 53.117954526808582 ], [ 8.970363611763215, 53.121023113094928 ], [ 8.969209846241252, 53.121833069907645 ], [ 8.968215031995246, 53.122771291968107 ], [ 8.967721364068593, 53.123510216165094 ], [ 8.967126188724597, 53.124535357317853 ], [ 8.966813115767421, 53.125241022959599 ], [ 8.966639852761945, 53.125839633705951 ], [ 8.967915547795847, 53.128917321342819 ], [ 8.962692528122504, 53.137408129852787 ], [ 8.956619377687801, 53.140077077873435 ], [ 8.95331891838515, 53.15326326162355 ], [ 8.947776398957705, 53.157828091774213 ], [ 8.944612837863652, 53.159830201627194 ], [ 8.937552512148912, 53.164182672872052 ], [ 8.934201309493512, 53.167773208186134 ], [ 8.932787327737076, 53.169388107918813 ], [ 8.93136107639279, 53.171290541631514 ], [ 8.930563673578616, 53.172465256000201 ], [ 8.930323912630715, 53.17283024947011 ], [ 8.929621553254298, 53.174231207858917 ], [ 8.929179311627397, 53.175492275849024 ], [ 8.928647845552254, 53.177093662040761 ], [ 8.927808913951804, 53.179949177954626 ], [ 8.927016267173322, 53.184531804380221 ], [ 8.926074105703647, 53.189813470372584 ], [ 8.925180639488081, 53.194295600519979 ], [ 8.923619122272539, 53.196537531555968 ], [ 8.922506585399146, 53.197827011698621 ], [ 8.922024544958234, 53.198163151282628 ], [ 8.921186060801535, 53.198733251539316 ], [ 8.918393222992918, 53.200143761358028 ], [ 8.916116610362026, 53.200916129601097 ], [ 8.913405655862899, 53.20154173830452 ], [ 8.909680692452094, 53.202068183139019 ], [ 8.88835123555967, 53.204182434023728 ], [ 8.883400684733056, 53.204806266005875 ], [ 8.880616439406808, 53.205478769126266 ], [ 8.875212552697921, 53.207258236434505 ], [ 8.858263462651216, 53.212870804541147 ], [ 8.846806197181545, 53.215727523561107 ], [ 8.841039212341297, 53.217163864954358 ], [ 8.837675401927999, 53.217739351991462 ], [ 8.836309886286616, 53.218149035094129 ], [ 8.834989225347847, 53.218559424827255 ], [ 8.83315764983544, 53.219348229423417 ], [ 8.813437069464317, 53.228425881520003 ], [ 8.806432679573177, 53.231998545360362 ], [ 8.797888482293287, 53.241093537149432 ], [ 8.786089513265679, 53.253803014551437 ], [ 8.787051282709546, 53.258332652056538 ], [ 8.819054604353703, 53.259708998040146 ] ] ], [ [ [ 8.918118495321414, 53.228238531375183 ], [ 8.916938328205783, 53.227123410816823 ], [ 8.913623791518933, 53.228654827819113 ], [ 8.914758641653959, 53.22977827287464 ], [ 8.918118495321414, 53.228238531375183 ], [ 8.918118495321414, 53.228238531375183 ] ] ] ] } },
{ "type": "Feature", "properties": { "OBJECTID": 2433, "State": "Nordrhein-Westfalen" }, "geometry": { "type": "MultiPolygon", "coordinates": [ [ [ [ 7.427976156977182, 51.66899100507743 ], [ 7.446454488770811, 51.664410681877513 ], [ 7.452399685602505, 51.665208378189796 ], [ 7.458021186175029, 51.666956206124176 ], [ 7.460851950424086, 51.667857541763226 ], [ 7.469115978715834, 51.67074128241665 ], [ 7.489878394970276, 51.675921930751066 ], [ 7.49770704694787, 51.67535607771363 ], [ 7.501792110884761, 51.669706529443189 ], [ 7.502548659114217, 51.663891283486997 ], [ 7.517090373436171, 51.659900368344744 ], [ 7.528542817153848, 51.659948090001102 ], [ 7.535028384442685, 51.66132680159081 ], [ 7.543476579725617, 51.664095895728281 ], [ 7.548601048870929, 51.665754837570098 ], [ 7.552885248108476, 51.666889109952514 ], [ 7.557614252585965, 51.667852741256397 ], [ 7.559514883354695, 51.668188245257291 ], [ 7.563420434132397, 51.66876101173829 ], [ 7.570281159585575, 51.668879278925083 ], [ 7.590542866616815, 51.66639160299296 ], [ 7.592941941989795, 51.656791751449241 ], [ 7.593793990403991, 51.648185861313344 ], [ 7.6065459118342, 51.633382800620552 ], [ 7.607975152326651, 51.631788262000661 ], [ 7.616243960044093, 51.633026228969804 ], [ 7.618976762192397, 51.633201092216424 ], [ 7.626980755369118, 51.633603517592775 ], [ 7.632242612036375, 51.631903981212275 ], [ 7.628699995308888, 51.625065269399236 ], [ 7.634501503513225, 51.615410888040884 ], [ 7.635853751793612, 51.615254696117141 ], [ 7.637932719730252, 51.610857586207828 ], [ 7.637115869365909, 51.606372101721568 ], [ 7.631983731534903, 51.603510259531696 ], [ 7.618911367756416, 51.601399593457074 ], [ 7.617310853641365, 51.600919269085104 ], [ 7.617212254338339, 51.60088084178269 ], [ 7.596561681263056, 51.592431730730638 ], [ 7.597928711369279, 51.580419481645563 ], [ 7.602274495659602, 51.573962930286839 ], [ 7.60706848080159, 51.565304675421345 ], [ 7.608486160805561, 51.562423706546262 ], [ 7.604502328667068, 51.559458988004401 ], [ 7.596487128970443, 51.553742291017642 ], [ 7.594465875782659, 51.552422886213371 ], [ 7.592787068834856, 51.551616109778045 ], [ 7.5888089043595, 51.549789046410261 ], [ 7.587670489201295, 51.549328697302421 ], [ 7.585291269331458, 51.548432438419432 ], [ 7.584711258640943, 51.548940283315552 ], [ 7.583839734779301, 51.550179203858676 ], [ 7.583618474285183, 51.552073500067124 ], [ 7.57451280279377, 51.557420772689618 ], [ 7.573380965666026, 51.557986876511805 ], [ 7.572065921053574, 51.558260292358135 ], [ 7.571231009870272, 51.558239516759471 ], [ 7.553134546631353, 51.552880660022865 ], [ 7.546301084533193, 51.549521949116048 ], [ 7.542639363878338, 51.545945456125857 ], [ 7.542228353677953, 51.544494496685722 ], [ 7.540436257417613, 51.535625570489373 ], [ 7.534052919905402, 51.527136094038212 ], [ 7.511666889490214, 51.515548321532563 ], [ 7.505788496144731, 51.510041277955068 ], [ 7.508452907946062, 51.501174498304259 ], [ 7.465332577156972, 51.499306119056392 ], [ 7.465027851228273, 51.500263933943152 ], [ 7.464460241099087, 51.502047942854709 ], [ 7.463162755053031, 51.510784706970419 ], [ 7.463539832305121, 51.512271166240446 ], [ 7.465650227384362, 51.512595788511646 ], [ 7.46797146633866, 51.512781740779353 ], [ 7.468882281699276, 51.513822720387246 ], [ 7.468844450159482, 51.515487549424265 ], [ 7.468287252215163, 51.517382104805819 ], [ 7.467711820883956, 51.518024582461329 ], [ 7.461675169693139, 51.520209875425813 ], [ 7.459395142903452, 51.520484097642623 ], [ 7.455410062780159, 51.520398984294999 ], [ 7.431634911829297, 51.518511300078259 ], [ 7.42820870865553, 51.517611425442468 ], [ 7.423623346561067, 51.516167860279879 ], [ 7.42235909084786, 51.521276385102112 ], [ 7.41494233881101, 51.533670442310033 ], [ 7.414154995985283, 51.534235084926451 ], [ 7.399373297977561, 51.541635345343842 ], [ 7.389027454610646, 51.55711137004613 ], [ 7.380779831769103, 51.561989690471599 ], [ 7.371347866715428, 51.565809456604946 ], [ 7.354155086492701, 51.567098092757384 ], [ 7.351422564082454, 51.566861850891257 ], [ 7.349938516851628, 51.566733518562906 ], [ 7.348194175297534, 51.565903055279364 ], [ 7.340373290676069, 51.569313316586239 ], [ 7.32699430179907, 51.572357272370859 ], [ 7.321910996355617, 51.572859485795959 ], [ 7.303593755056215, 51.587152706103559 ], [ 7.30231058660337, 51.591446386401124 ], [ 7.302516016234367, 51.592775454769601 ], [ 7.30326534186866, 51.597622740845438 ], [ 7.30404193128321, 51.59931874873164 ], [ 7.304884976199762, 51.600269137790654 ], [ 7.306056266148307, 51.60106633140515 ], [ 7.314603067235273, 51.605553092993617 ], [ 7.322453290205059, 51.60647153370352 ], [ 7.325498390167052, 51.606481597040137 ], [ 7.327125771662562, 51.606097336330464 ], [ 7.329146027184328, 51.605612988105193 ], [ 7.330517969599748, 51.60528404509455 ], [ 7.335776491686643, 51.603966636737248 ], [ 7.346538814320427, 51.605515922476279 ], [ 7.353923471105444, 51.607073097448811 ], [ 7.363109669426755, 51.610577766980555 ], [ 7.36403542009282, 51.611394823459925 ], [ 7.363784418640663, 51.613038117772732 ], [ 7.360786272951813, 51.615988797425715 ], [ 7.351109629100542, 51.629396591171762 ], [ 7.351884991813634, 51.650144934005084 ], [ 7.358758763299387, 51.664966118216554 ], [ 7.370032989966401, 51.665419609387065 ], [ 7.371870604115388, 51.67173547263544 ], [ 7.371727784196049, 51.674036827988097 ], [ 7.37674555099517, 51.672530967733323 ], [ 7.384423778334379, 51.671221257312673 ], [ 7.390287155109881, 51.670448514873996 ], [ 7.395549624362972, 51.670434048561908 ], [ 7.396322079608094, 51.670553422192988 ], [ 7.414057902357941, 51.67998693340877 ], [ 7.417934144085002, 51.68275349165468 ], [ 7.425346934394181, 51.675062084650079 ], [ 7.427976156977182, 51.66899100507743 ] ] ] ] } },
{ "type": "Feature", "properties": { "OBJECTID": 2794, "State": "Hessen" }, "geometry": { "type": "MultiPolygon", "coordinates": [ [ [ [ 9.051666695210837, 50.764774859942591 ], [ 9.070055480328058, 50.768512862328457 ], [ 9.083878424623176, 50.769411471324744 ], [ 9.085867714497562, 50.768859801988839 ], [ 9.088817188276074, 50.767995819173365 ], [ 9.103256808403449, 50.746419638589444 ], [ 9.098810087460068, 50.728241546632553 ], [ 9.096527618693147, 50.730589707279677 ], [ 9.093749311579055, 50.731032971546 ], [ 9.090773666413652, 50.72110665435666 ], [ 9.090721871625835, 50.720944037658363 ], [ 9.082332200151688, 50.715721070294336 ], [ 9.073372232393412, 50.712524282266656 ], [ 9.048498074164653, 50.709758329902748 ], [ 9.034989626967221, 50.709354215599888 ], [ 9.042270840014082, 50.702210634715755 ], [ 9.043769980976782, 50.700942594404403 ], [ 9.038592589526999, 50.694679898603354 ], [ 9.033606029374331, 50.6893310894527 ], [ 9.02244066163655, 50.680432660768282 ], [ 9.012618991371818, 50.676167090251433 ], [ 9.012492149318627, 50.676147461398919 ], [ 9.007183705951071, 50.675620120005249 ], [ 9.004144192919863, 50.677659737422786 ], [ 9.004256346254079, 50.678138158252722 ], [ 9.006325450099865, 50.686516372360877 ], [ 9.004796808879744, 50.687360579953932 ], [ 9.004436746126908, 50.687544915325688 ], [ 8.974967687058397, 50.684154496406777 ], [ 8.972307949306165, 50.682751485622433 ], [ 8.971157222380789, 50.677660550288415 ], [ 8.955145056249767, 50.690299261701838 ], [ 8.948914513619894, 50.699161520173448 ], [ 8.944948596758335, 50.702087178577457 ], [ 8.939199175043665, 50.705780641621736 ], [ 8.923944027191347, 50.709308830279433 ], [ 8.922152431479281, 50.709059437806992 ], [ 8.921822158475067, 50.70876694674326 ], [ 8.918371762910123, 50.705605979914736 ], [ 8.907645257133256, 50.713027686101988 ], [ 8.905137884117826, 50.717961011225746 ], [ 8.904528694718248, 50.719608564403927 ], [ 8.907466536950107, 50.722981982027655 ], [ 8.908852365051573, 50.724143992589127 ], [ 8.911337802091547, 50.724963896795607 ], [ 8.918299110987375, 50.726574204371317 ], [ 8.933768340549749, 50.730789247550547 ], [ 8.939339846725023, 50.736336205458308 ], [ 8.940470165629437, 50.738583327881273 ], [ 8.945886455589575, 50.743731875559114 ], [ 8.954979745313489, 50.751395114235699 ], [ 8.964461009215205, 50.75555292070414 ], [ 8.971832376344514, 50.759776252846478 ], [ 8.9721639121131, 50.760656878493442 ], [ 8.976402671253728, 50.762369933226715 ], [ 8.984963680259661, 50.76466023349731 ], [ 9.011805570674667, 50.770714180562067 ], [ 9.015308405093181, 50.771136443027018 ], [ 9.02188912735682, 50.769033677709785 ], [ 9.051666695210837, 50.764774859942591 ] ] ] ] } },
{ "type": "Feature", "properties": { "OBJECTID": 3473, "State": "Rheinland-Pfalz" }, "geometry": { "type": "MultiPolygon", "coordinates": [ [ [ [ 7.113287345295021, 49.99971883196514 ], [ 7.116065795107258, 49.998403632513607 ], [ 7.120482892954379, 49.998658012698748 ], [ 7.125192514377517, 49.999731264972866 ], [ 7.133025330536547, 49.99835490005168 ], [ 7.137373781088385, 49.99497713142528 ], [ 7.142060061965287, 49.988744991829627 ], [ 7.144781741648954, 49.983798016053541 ], [ 7.151664057775261, 49.984383423547769 ], [ 7.15243435830574, 49.984972959997513 ], [ 7.153460038322699, 49.985308654988366 ], [ 7.154666056097564, 49.985262258574359 ], [ 7.163910636614473, 49.98405051285085 ], [ 7.172800734054229, 49.979045382216142 ], [ 7.184818243235973, 49.97387654635321 ], [ 7.178623375631935, 49.965549586340906 ], [ 7.179186374433483, 49.960207114236269 ], [ 7.183276098651413, 49.958054240868009 ], [ 7.191010446298842, 49.959211003515485 ], [ 7.193275658660801, 49.960220995351072 ], [ 7.192975189987446, 49.963589658981633 ], [ 7.190811652050071, 49.971093118470257 ], [ 7.194582311163651, 49.969318006857968 ], [ 7.197851429867705, 49.966285747188472 ], [ 7.199244447566348, 49.961038826307004 ], [ 7.198577310172067, 49.958732425515741 ], [ 7.195032656582115, 49.956575383583804 ], [ 7.191250725175434, 49.954273612502753 ], [ 7.187399215486423, 49.94990426534747 ], [ 7.187025317694428, 49.947407999078166 ], [ 7.185956890809902, 49.932013561140721 ], [ 7.183448171935699, 49.932131183452576 ], [ 7.18246945912092, 49.932346432992119 ], [ 7.168513889453366, 49.929092668559186 ], [ 7.160239582007748, 49.926296904757031 ], [ 7.149799755197103, 49.927006018670362 ], [ 7.134835109726099, 49.929870133033745 ], [ 7.132296314151853, 49.930418054678526 ], [ 7.107992727027121, 49.944283742594614 ], [ 7.106885494670233, 49.944926914711118 ], [ 7.095296986241117, 49.958458041418226 ], [ 7.087747089139208, 49.972917316553676 ], [ 7.083407981802151, 49.975942248076066 ], [ 7.080004308799228, 49.977753384750912 ], [ 7.078200132410446, 49.978338900089604 ], [ 7.062315207703756, 49.985237207062035 ], [ 7.066178719394444, 49.986765319454051 ], [ 7.06831193821506, 49.985288119924199 ], [ 7.070811645906211, 49.9839657922344 ], [ 7.073261560721209, 49.984524317706544 ], [ 7.084508499832258, 49.989439269160869 ], [ 7.085705527058118, 49.991104566655324 ], [ 7.086180506704765, 49.992892780096803 ], [ 7.098590639727356, 50.001794187652372 ], [ 7.109074737328182, 50.003919286948282 ], [ 7.111138984035704, 50.002817559701526 ], [ 7.110901878889204, 50.001810950354731 ], [ 7.111389089727895, 50.001248722708738 ], [ 7.113287345295021, 49.99971883196514 ], [ 7.113287345295021, 49.99971883196514 ] ] ] ] } },
{ "type": "Feature", "properties": { "OBJECTID": 5238, "State": "Baden-Württemberg" }, "geometry": { "type": "MultiPolygon", "coordinates": [ [ [ [ 8.530577679238789, 48.653451003186603 ], [ 8.530162019886067, 48.651629285419091 ], [ 8.535166851123847, 48.642205898266695 ], [ 8.539027536465875, 48.636861970600862 ], [ 8.545673955491763, 48.633366408380148 ], [ 8.549570749694931, 48.634453796940882 ], [ 8.54272835381308, 48.629249447730977 ], [ 8.543832228016576, 48.624927117301283 ], [ 8.548787247756984, 48.61037528025178 ], [ 8.555366005327553, 48.606293732875791 ], [ 8.558543297472538, 48.607210830888015 ], [ 8.561979854035057, 48.599073203613777 ], [ 8.562752057483779, 48.597103027163165 ], [ 8.564749309098389, 48.58395735851196 ], [ 8.566785293504138, 48.583665231127235 ], [ 8.576924312405236, 48.58111526444079 ], [ 8.590019028644006, 48.577364480969102 ], [ 8.596660535422263, 48.574135893635884 ], [ 8.600178537487643, 48.57102058448924 ], [ 8.599043270267572, 48.569751769418964 ], [ 8.60018785056295, 48.568570687246385 ], [ 8.60477845476699, 48.566003658902815 ], [ 8.612693310271446, 48.565881250393495 ], [ 8.618525041706929, 48.566150489711688 ], [ 8.620627119488198, 48.5664517188047 ], [ 8.619050000230384, 48.561928786067568 ], [ 8.610504152511583, 48.56159139303044 ], [ 8.581547019439428, 48.557573987536401 ], [ 8.579786332932807, 48.555629819176559 ], [ 8.578864800594253, 48.553865772704789 ], [ 8.578628604118434, 48.552981726851577 ], [ 8.578076713696678, 48.550052496144552 ], [ 8.575232748723851, 48.543086496185367 ], [ 8.570364090278762, 48.536079979536154 ], [ 8.563235363202637, 48.530369600754995 ], [ 8.561356337988515, 48.529323825790108 ], [ 8.556135641822401, 48.528212954565539 ], [ 8.521913572504912, 48.519737244078733 ], [ 8.519679349999549, 48.518874955459395 ], [ 8.518385808882664, 48.516377573240646 ], [ 8.518207342693071, 48.514387781231889 ], [ 8.545106694803124, 48.485726108033063 ], [ 8.550622029129173, 48.482074031992191 ], [ 8.538367404018054, 48.480513843885127 ], [ 8.522518015259772, 48.477750597669292 ], [ 8.51835471054204, 48.477477572738771 ], [ 8.514104720690099, 48.477401251687098 ], [ 8.510137304003441, 48.477426999534821 ], [ 8.507646800481828, 48.477595791533474 ], [ 8.502778341773332, 48.478294292343115 ], [ 8.500767518644745, 48.47881033142842 ], [ 8.498338356951463, 48.479726146226241 ], [ 8.483844073976719, 48.487181639683691 ], [ 8.476176756928293, 48.491559725517803 ], [ 8.47434576362399, 48.492251715703681 ], [ 8.472196313309437, 48.492754237121005 ], [ 8.446393152071659, 48.495580070131176 ], [ 8.444827318075644, 48.495686823056353 ], [ 8.441255879991978, 48.495589057753158 ], [ 8.437940360844259, 48.495089584308438 ], [ 8.430984378779772, 48.494536034153839 ], [ 8.427198750047827, 48.494327232900552 ], [ 8.423671829387892, 48.49458023173117 ], [ 8.418253712705063, 48.495303041960227 ], [ 8.410121388252282, 48.496524534628158 ], [ 8.406361599020331, 48.497304731120678 ], [ 8.403489434929424, 48.497934107845026 ], [ 8.398824171530471, 48.498999438611257 ], [ 8.396054249982262, 48.499845786607551 ], [ 8.389209214590638, 48.502475063845552 ], [ 8.386014466653696, 48.504359110962319 ], [ 8.384354279452829, 48.505354265849398 ], [ 8.382719096316043, 48.506421673082606 ], [ 8.381291617473359, 48.507356802401894 ], [ 8.379971737901897, 48.508329273279791 ], [ 8.378807037764604, 48.513279301346742 ], [ 8.372675406172059, 48.518363294396437 ], [ 8.368338439176322, 48.521572336179368 ], [ 8.360152084036372, 48.525711650945155 ], [ 8.347803650449933, 48.528005951698091 ], [ 8.345800466447075, 48.528141570349902 ], [ 8.34439469008295, 48.528761725858089 ], [ 8.344785684304515, 48.530232999233533 ], [ 8.345497659448396, 48.530979917213287 ], [ 8.348955717863664, 48.533130037186147 ], [ 8.350240704180425, 48.533821467473871 ], [ 8.370248190360195, 48.543022265527149 ], [ 8.377040270282235, 48.541499675252112 ], [ 8.379243784348558, 48.541042248213756 ], [ 8.382963373839802, 48.542232218774608 ], [ 8.390425252612573, 48.559273426867207 ], [ 8.391199038424569, 48.561208141163434 ], [ 8.391893929727953, 48.570535547220494 ], [ 8.391221856855948, 48.591287088198989 ], [ 8.390854562847275, 48.593612097540962 ], [ 8.389046948570972, 48.599093998955041 ], [ 8.38242821821691, 48.601411239030448 ], [ 8.396404237559052, 48.624337307171871 ], [ 8.404784194636594, 48.61678826828404 ], [ 8.414079786862164, 48.612371346377905 ], [ 8.420621692376498, 48.610357082895575 ], [ 8.427677828163793, 48.611802846073381 ], [ 8.443485364817604, 48.615496322335268 ], [ 8.444434939311723, 48.61855719755998 ], [ 8.447976004490602, 48.632731434219366 ], [ 8.444035230071083, 48.63912374516547 ], [ 8.4390875755937, 48.644927926505417 ], [ 8.458953866521824, 48.648686811223826 ], [ 8.459915595082723, 48.64694440414879 ], [ 8.460967411520221, 48.645391972558734 ], [ 8.464973336798929, 48.642498882790044 ], [ 8.467877313347344, 48.640500924892066 ], [ 8.470632428560295, 48.638950858082161 ], [ 8.474709983009053, 48.637471420452279 ], [ 8.476784627197185, 48.636775669734234 ], [ 8.482584927578323, 48.636315756933818 ], [ 8.485168275600508, 48.636132211431786 ], [ 8.493590583736742, 48.636053214641855 ], [ 8.510236792676862, 48.639270447820991 ], [ 8.51289290475601, 48.640204728172534 ], [ 8.511596135785874, 48.644875996817127 ], [ 8.511273035496805, 48.648812000745771 ], [ 8.521358863849203, 48.653021347692246 ], [ 8.525991161550111, 48.654693704177845 ], [ 8.530577679238789, 48.653451003186603 ], [ 8.530577679238789, 48.653451003186603 ] ] ] ] } },
{ "type": "Feature", "properties": { "OBJECTID": 6428, "State": "Bayern" }, "geometry": { "type": "MultiPolygon", "coordinates": [ [ [ [ 11.279465681397964, 48.43917628835581 ], [ 11.308676651173371, 48.425067351034151 ], [ 11.316821675199664, 48.423641224789051 ], [ 11.341454669739175, 48.42050894922793 ], [ 11.367959468717924, 48.422050206141094 ], [ 11.371011308643538, 48.423540992871928 ], [ 11.373146351738749, 48.425323537983239 ], [ 11.374241901980438, 48.428003383414008 ], [ 11.374592068600059, 48.429052715124811 ], [ 11.376764212716246, 48.431480101370184 ], [ 11.379402359986388, 48.434176368370444 ], [ 11.382072678803125, 48.43506642255182 ], [ 11.384720460926792, 48.435501831218751 ], [ 11.403826718582284, 48.4318565705547 ], [ 11.407627410294308, 48.430949206222728 ], [ 11.410034109934704, 48.429523824029715 ], [ 11.418447003852515, 48.428555569649788 ], [ 11.423735616235049, 48.424935252108277 ], [ 11.42503085816146, 48.422791283936064 ], [ 11.405566087325212, 48.402849012989307 ], [ 11.399642817057785, 48.399035229072105 ], [ 11.396947453832841, 48.391881648113902 ], [ 11.39671600935927, 48.390633431874051 ], [ 11.402768562156465, 48.38768183266091 ], [ 11.406180931417465, 48.387949403501153 ], [ 11.409943793477053, 48.38866842586053 ], [ 11.417111158714299, 48.386722221638429 ], [ 11.420990817132465, 48.385210981541285 ], [ 11.423366966050391, 48.383254287908336 ], [ 11.421575024586129, 48.368510652465297 ], [ 11.43365389730479, 48.350524340123449 ], [ 11.443044864822099, 48.347111211544316 ], [ 11.44647301645751, 48.347107111519698 ], [ 11.451065744292302, 48.347336519783838 ], [ 11.45836593215191, 48.340744042118089 ], [ 11.468370215685932, 48.322451102791433 ], [ 11.475327508044844, 48.312353753819352 ], [ 11.474758264304208, 48.310820665657388 ], [ 11.474533970221238, 48.310489677023803 ], [ 11.474060547058404, 48.310327723095511 ], [ 11.473481968649844, 48.310309589955089 ], [ 11.472833818322695, 48.310411130489264 ], [ 11.459938642837583, 48.312856641280256 ], [ 11.459611433862111, 48.313800195322514 ], [ 11.45984625068016, 48.314607092030968 ], [ 11.458983348665361, 48.314805823197872 ], [ 11.458120438202574, 48.315004548045074 ], [ 11.45711140964171, 48.315133278518509 ], [ 11.440330209900527, 48.31680475066883 ], [ 11.432540982254226, 48.315926463867221 ], [ 11.406649584033081, 48.315191692442326 ], [ 11.401741677457343, 48.31511097566446 ], [ 11.395156348667367, 48.316539210466992 ], [ 11.383406197793949, 48.317747416076799 ], [ 11.368272818959642, 48.317084745264033 ], [ 11.367547724735484, 48.316972165437043 ], [ 11.35190773919633, 48.314365589948352 ], [ 11.338304505544913, 48.313007399375365 ], [ 11.330386578678246, 48.314645748391641 ], [ 11.326645693370573, 48.316456252068207 ], [ 11.332191067160315, 48.32339799962206 ], [ 11.338738558064975, 48.333113477614162 ], [ 11.338966269744205, 48.333658894141095 ], [ 11.339014668802793, 48.334277244623962 ], [ 11.338989359788179, 48.334824832550368 ], [ 11.33657831665422, 48.344255362084105 ], [ 11.33297994859055, 48.347728832186029 ], [ 11.328449069914358, 48.350121986625673 ], [ 11.329245257104184, 48.350455768194749 ], [ 11.330342158737288, 48.351065218494433 ], [ 11.331183167889199, 48.3515340421392 ], [ 11.332025597702293, 48.352074244909716 ], [ 11.337194110986117, 48.358120136378538 ], [ 11.346029358863976, 48.374073087623501 ], [ 11.346139109864968, 48.37601529561973 ], [ 11.33165699704532, 48.381734080424408 ], [ 11.328073651550337, 48.382598646105826 ], [ 11.326569857944335, 48.382961428086453 ], [ 11.323039775977103, 48.383812941385251 ], [ 11.324379130431712, 48.384458272995694 ], [ 11.327079663362808, 48.387556696605863 ], [ 11.329396555329851, 48.391179924116678 ], [ 11.327639409006334, 48.397635898056272 ], [ 11.326320257328289, 48.398670436699511 ], [ 11.324782480398772, 48.399635407498472 ], [ 11.311992209347677, 48.400932641115936 ], [ 11.307344913925878, 48.400233473254993 ], [ 11.296117053065446, 48.396566637153185 ], [ 11.29587791596358, 48.395498193802794 ], [ 11.296302960049358, 48.3933808976753 ], [ 11.287595327754175, 48.396663072413368 ], [ 11.285592259683426, 48.408786546826825 ], [ 11.287499383123714, 48.41050713544449 ], [ 11.288367675275607, 48.409375714725989 ], [ 11.29333629652475, 48.409407930045582 ], [ 11.303076538604909, 48.40995697597279 ], [ 11.306955750352882, 48.410284714964888 ], [ 11.306863963512255, 48.412438240638913 ], [ 11.30624290733795, 48.414042706121258 ], [ 11.29765249230099, 48.420525790544382 ], [ 11.291656891191998, 48.421969015020764 ], [ 11.294576933812877, 48.420029246708964 ], [ 11.293246955410225, 48.417737370458987 ], [ 11.284466348839933, 48.418096505229045 ], [ 11.280003182002588, 48.420246314494818 ], [ 11.277000581307938, 48.425883326732489 ], [ 11.277285548728946, 48.429529278418052 ], [ 11.26902902727841, 48.436821956736701 ], [ 11.266151649721927, 48.437465426033071 ], [ 11.270328680448136, 48.444934219721077 ], [ 11.272832887678378, 48.44630853109566 ], [ 11.276487038696436, 48.446171399632085 ], [ 11.2789003432221, 48.444119154630812 ], [ 11.278361138943051, 48.443844631594033 ], [ 11.275473349194284, 48.442464518379005 ], [ 11.275401912991706, 48.441565576174973 ], [ 11.279465681397964, 48.43917628835581 ], [ 11.279465681397964, 48.43917628835581 ] ] ] ] } },
{ "type": "Feature", "properties": { "OBJECTID": 8605, "State": "Saarland" }, "geometry": { "type": "MultiPolygon", "coordinates": [ [ [ [ 6.691455323650172, 49.592650084180072 ], [ 6.696584305323523, 49.589719849153305 ], [ 6.698161617551261, 49.588345712045189 ], [ 6.698898436916039, 49.586756453473143 ], [ 6.700625884002913, 49.585594062205672 ], [ 6.705601738379766, 49.583424221863787 ], [ 6.710767290380892, 49.582250652197423 ], [ 6.713712662682065, 49.581611905670499 ], [ 6.719798424354662, 49.582600603586137 ], [ 6.722383723612621, 49.583697664141603 ], [ 6.725661674250166, 49.585338240281942 ], [ 6.728764377532848, 49.585964713888494 ], [ 6.734076059184373, 49.578718060730282 ], [ 6.735962213934544, 49.575720624007651 ], [ 6.731779380090778, 49.574138887775383 ], [ 6.73021241559987, 49.573546274750399 ], [ 6.728370066698604, 49.572849466808044 ], [ 6.725126250136364, 49.571128950996183 ], [ 6.686409274180862, 49.549562893081848 ], [ 6.675884370705655, 49.543309784359735 ], [ 6.675338602221786, 49.537754223224688 ], [ 6.675625299919434, 49.535529722963972 ], [ 6.676746839739717, 49.527351412476122 ], [ 6.679880910336252, 49.521253065510685 ], [ 6.681451245896122, 49.518438124183213 ], [ 6.673293761820415, 49.518562260112851 ], [ 6.671379066334572, 49.51834943370995 ], [ 6.665735323540538, 49.517659859989514 ], [ 6.662028733878443, 49.516877524143382 ], [ 6.651458074448627, 49.5153215013436 ], [ 6.64586037666353, 49.516073296893033 ], [ 6.637498136692208, 49.525320421951307 ], [ 6.638079521610021, 49.527157939084098 ], [ 6.631144846338005, 49.532910310996208 ], [ 6.625580689771611, 49.537084540961303 ], [ 6.624305552082851, 49.537539575407557 ], [ 6.622080572586028, 49.538712062202571 ], [ 6.606212835968662, 49.558950392499391 ], [ 6.59816201379247, 49.573428787395706 ], [ 6.604952812888533, 49.581209973343149 ], [ 6.605176907195103, 49.581352183946976 ], [ 6.615762297577383, 49.586416087081517 ], [ 6.62040157889732, 49.585301968857024 ], [ 6.633392197596224, 49.583649484577236 ], [ 6.640744029826124, 49.58748327723405 ], [ 6.659565731158746, 49.593657041123265 ], [ 6.670622144685215, 49.596172566743903 ], [ 6.675656418972737, 49.597202902785781 ], [ 6.67858412847461, 49.596825650567332 ], [ 6.691455323650172, 49.592650084180072 ] ] ] ] } },
{ "type": "Feature", "properties": { "OBJECTID": 8640, "State": "Berlin" }, "geometry": { "type": "MultiPolygon", "coordinates": [ [ [ [ 13.623744672249982, 52.412712478703597 ], [ 13.623879816522447, 52.410211269749588 ], [ 13.63906353177326, 52.398659347355576 ], [ 13.661013650756294, 52.389492563322442 ], [ 13.665728110357097, 52.391165821976777 ], [ 13.667105292349117, 52.391401407348901 ], [ 13.671332245172245, 52.389360808572242 ], [ 13.671149862285032, 52.388195424249602 ], [ 13.670303456100807, 52.382897829678136 ], [ 13.665930779834103, 52.373566532646187 ], [ 13.660510043421803, 52.371919926890293 ], [ 13.654049472926673, 52.369758995340305 ], [ 13.648450199239573, 52.357721744673988 ], [ 13.646778102098475, 52.354613405737211 ], [ 13.644984406957267, 52.349024151978362 ], [ 13.656385737856757, 52.336113870129807 ], [ 13.670662334741365, 52.336783115932391 ], [ 13.675539991315294, 52.336138853859907 ], [ 13.681996487206613, 52.33480671176158 ], [ 13.689859755401589, 52.333087759937996 ], [ 13.695344222511288, 52.331815379244105 ], [ 13.704012506768059, 52.32805012281306 ], [ 13.729771823927608, 52.314812555829114 ], [ 13.730981672795565, 52.312928054216215 ], [ 13.731319427746225, 52.312157391208828 ], [ 13.731551594077615, 52.311556121724294 ], [ 13.735546316962159, 52.300012281569238 ], [ 13.735726431243782, 52.299197632257034 ], [ 13.735782421780065, 52.298296156705049 ], [ 13.735751210043778, 52.297414915206012 ], [ 13.735531357482149, 52.296367495823354 ], [ 13.734604674765787, 52.294276122175368 ], [ 13.734273259967257, 52.293537570744192 ], [ 13.733885996446109, 52.292845450255939 ], [ 13.733619240646661, 52.292402256325481 ], [ 13.735137172150701, 52.292147384104268 ], [ 13.756111391504527, 52.288656269236242 ], [ 13.75905955583006, 52.28816619086755 ], [ 13.767089691118381, 52.286878598731462 ], [ 13.780173355688611, 52.282074973888605 ], [ 13.779613661730259, 52.274699902265468 ], [ 13.805127689476691, 52.273800125592089 ], [ 13.806804586388413, 52.269741765847691 ], [ 13.795214979734004, 52.264626508434937 ], [ 13.792272132996034, 52.263272206284007 ], [ 13.788249299453174, 52.260820882354679 ], [ 13.786455364895991, 52.2596435126286 ], [ 13.784923824461405, 52.258630302065676 ], [ 13.782898137253218, 52.257089881024278 ], [ 13.781550952279007, 52.255756801391477 ], [ 13.777595325243237, 52.250234095596788 ], [ 13.763242937411661, 52.224755669551385 ], [ 13.761770374431878, 52.219681233415002 ], [ 13.761818391821572, 52.216366779557973 ], [ 13.769259900963439, 52.212493441449936 ], [ 13.773740748616143, 52.212287121944911 ], [ 13.777047025301316, 52.217430812806725 ], [ 13.788845245707121, 52.223415246373818 ], [ 13.796447132409503, 52.222712573715135 ], [ 13.81521236116485, 52.218097670998532 ], [ 13.827019073631254, 52.213303710499943 ], [ 13.847423153149965, 52.212132831652646 ], [ 13.849556255394269, 52.212076096104219 ], [ 13.86467977646835, 52.206124903094832 ], [ 13.868874234781119, 52.200506594079037 ], [ 13.877344282543392, 52.194527437326556 ], [ 13.880445402357982, 52.194012053615012 ], [ 13.887162083995621, 52.192967187363813 ], [ 13.893502458177656, 52.192427191258943 ], [ 13.901452033090326, 52.191528272848657 ], [ 13.90271118048528, 52.190810064096937 ], [ 13.907260766602549, 52.186509979077947 ], [ 13.908701406204413, 52.182411059300428 ], [ 13.908251055862062, 52.181280025590823 ], [ 13.90244722515984, 52.18554211338364 ], [ 13.898768240101983, 52.185389569874445 ], [ 13.892292302617509, 52.18199973058335 ], [ 13.886190717661187, 52.178068372452458 ], [ 13.87774565818836, 52.161324080528765 ], [ 13.877695081417274, 52.160620442690359 ], [ 13.877889218562478, 52.159853064668226 ], [ 13.878509944543239, 52.158921043581969 ], [ 13.881376784241287, 52.155633342252706 ], [ 13.882396801222761, 52.154653188742458 ], [ 13.886981229927892, 52.151252390489539 ], [ 13.88248869264441, 52.147615452422848 ], [ 13.864668750748688, 52.143458050427135 ], [ 13.861074550941552, 52.141969900006494 ], [ 13.838896882507727, 52.12950110808594 ], [ 13.845107633948752, 52.121484609375479 ], [ 13.847969918066564, 52.121813453910434 ], [ 13.848739750908033, 52.121882955267772 ], [ 13.848229405603334, 52.119051954465291 ], [ 13.847215515775453, 52.118035851077629 ], [ 13.840436943162894, 52.11204887209383 ], [ 13.840296547669181, 52.111935580797443 ], [ 13.840141475356956, 52.111822678927922 ], [ 13.83997300098965, 52.111728137992799 ], [ 13.839805163759637, 52.111642581269855 ], [ 13.839608608807572, 52.111566789646851 ], [ 13.839412692316355, 52.111499982096525 ], [ 13.838796225180419, 52.111309324471534 ], [ 13.838347596851799, 52.111204222598374 ], [ 13.837900242696122, 52.111117088844665 ], [ 13.837662844558981, 52.111087389535889 ], [ 13.837440761341625, 52.111066284014122 ], [ 13.837218678310839, 52.111045178068942 ], [ 13.836996596930399, 52.111024071642198 ], [ 13.836791103458342, 52.111029529891546 ], [ 13.83655625248598, 52.111035768015569 ], [ 13.836337354557175, 52.111059585381255 ], [ 13.83587083895247, 52.111116983367417 ], [ 13.835189240248303, 52.111252105313561 ], [ 13.834755895599397, 52.11136262960428 ], [ 13.834337864458385, 52.111481747875793 ], [ 13.833965773710531, 52.111626650719465 ], [ 13.833610904820395, 52.111807103340198 ], [ 13.832578818497218, 52.112392600260129 ], [ 13.83222393762755, 52.1125730480722 ], [ 13.83203820334978, 52.112649989142824 ], [ 13.831837789061639, 52.112727319476924 ], [ 13.831435050870933, 52.112855022935406 ], [ 13.831016997534789, 52.112974128999923 ], [ 13.830800629525839, 52.113033876231874 ], [ 13.830351306994109, 52.113126804371788 ], [ 13.830118987097496, 52.113168968882661 ], [ 13.829667120879096, 52.113225954525944 ], [ 13.829448207654796, 52.113249759436727 ], [ 13.82897848243508, 52.113262205493534 ], [ 13.828787022060089, 52.113258276287951 ], [ 13.828550888583891, 52.113246527812294 ], [ 13.828106074525703, 52.113195298582156 ], [ 13.827883349951449, 52.113165189718458 ], [ 13.827421954293396, 52.113087391409152 ], [ 13.8271985967558, 52.11304829663176 ], [ 13.826330716770169, 52.112837228252978 ], [ 13.82591082329702, 52.112722317370121 ], [ 13.825700243084585, 52.112655877212191 ], [ 13.820658010693473, 52.1110158731517 ], [ 13.820462123578208, 52.110949035168794 ], [ 13.820279649644293, 52.110863839474405 ], [ 13.819944691051541, 52.110701655887112 ], [ 13.819775630205688, 52.110598100290154 ], [ 13.819312483109618, 52.110286270959797 ], [ 13.819032445289299, 52.110068623177426 ], [ 13.817854357544773, 52.109001515880948 ], [ 13.817224843211635, 52.10841501537228 ], [ 13.816624067389398, 52.10781875215207 ], [ 13.816274592824017, 52.107449900896064 ], [ 13.805207744353122, 52.095502093457867 ], [ 13.79931001171081, 52.086597006857509 ], [ 13.799955080701858, 52.083388229388781 ], [ 13.798950046578922, 52.082835663362843 ], [ 13.796632842602234, 52.082172449400979 ], [ 13.79564191598439, 52.082236559309891 ], [ 13.793624534469458, 52.082746761040724 ], [ 13.7908773263035, 52.083942932397889 ], [ 13.786183492109355, 52.087751284353516 ], [ 13.78513728860594, 52.089066172095905 ], [ 13.784523192784015, 52.090968538932891 ], [ 13.786605765025346, 52.103432319401122 ], [ 13.786869655418574, 52.104092292654059 ], [ 13.787466765282199, 52.105067462296851 ], [ 13.788405629951253, 52.106033689428088 ], [ 13.795184001249234, 52.11265644329729 ], [ 13.789929078064201, 52.114884556770136 ], [ 13.781623509125163, 52.120214503300723 ], [ 13.779979973983817, 52.121958673941513 ], [ 13.776182046384505, 52.125721283091139 ], [ 13.755191209927265, 52.118912046582373 ], [ 13.753864544842806, 52.121637790540959 ], [ 13.754527783069078, 52.123573940509253 ], [ 13.753802953604341, 52.124366808395784 ], [ 13.740994238529552, 52.138100300748405 ], [ 13.73575143728277, 52.136317907107014 ], [ 13.713137408338431, 52.132216454110647 ], [ 13.702822838954781, 52.132407207841517 ], [ 13.692882036094938, 52.132686610930463 ], [ 13.683895735538222, 52.13294106898288 ], [ 13.683024154940103, 52.135285347933262 ], [ 13.683316004893165, 52.137429206893437 ], [ 13.684011403809777, 52.139229830391088 ], [ 13.679334557243125, 52.142534258205657 ], [ 13.669712819322239, 52.145404883722868 ], [ 13.663397208745085, 52.145365526440763 ], [ 13.642369765790551, 52.142507106904191 ], [ 13.63489229590259, 52.1413611251742 ], [ 13.626735843469211, 52.144839860574187 ], [ 13.625789785330078, 52.146996462240814 ], [ 13.616569598207789, 52.163362581011953 ], [ 13.610553725236464, 52.164555049861285 ], [ 13.605834779012923, 52.163537197199211 ], [ 13.567004807401021, 52.153848020226157 ], [ 13.566665191567637, 52.151111171282047 ], [ 13.572042486882552, 52.138982947218523 ], [ 13.575817487138817, 52.130754605739227 ], [ 13.57566384397211, 52.12975029832797 ], [ 13.569216998486391, 52.120177755778833 ], [ 13.536752903376343, 52.121899079508516 ], [ 13.535448963021866, 52.132514777788153 ], [ 13.530626517114486, 52.132324588175081 ], [ 13.527030657323079, 52.132221818206865 ], [ 13.525601359414575, 52.132184063840725 ], [ 13.518686353279131, 52.132394513673752 ], [ 13.491260599598196, 52.151604782496612 ], [ 13.491404793880845, 52.154188958346793 ], [ 13.491480774506639, 52.155550552227972 ], [ 13.462359099740526, 52.144693310330659 ], [ 13.460158219027901, 52.143116085564351 ], [ 13.445014439948958, 52.159745745727989 ], [ 13.444362253077003, 52.160381898764385 ], [ 13.443907354398338, 52.16016748781314 ], [ 13.442403142450136, 52.159410492198255 ], [ 13.439134983444079, 52.157740485650706 ], [ 13.433526666582932, 52.154639703584067 ], [ 13.430254409181467, 52.15265457268918 ], [ 13.426347501106299, 52.150396042363369 ], [ 13.426043619323288, 52.150241073152458 ], [ 13.425497966858034, 52.149983694986915 ], [ 13.425270891785638, 52.149880947139437 ], [ 13.424938738918108, 52.149744628023029 ], [ 13.424547256574497, 52.149600679297194 ], [ 13.423946730455729, 52.149407559897725 ], [ 13.423332070094711, 52.149223763652621 ], [ 13.422689691170094, 52.149067603130447 ], [ 13.422003790394999, 52.148921444353626 ], [ 13.421244424290132, 52.148776976358889 ], [ 13.420442644903934, 52.148660481294321 ], [ 13.419997952770506, 52.148607742116333 ], [ 13.419553261607616, 52.148555001239203 ], [ 13.418651404265416, 52.148485800827153 ], [ 13.418193684291762, 52.148460353690112 ], [ 13.417721823011274, 52.148444231392155 ], [ 13.416794458340975, 52.148438601887776 ], [ 13.415633653705134, 52.148465340619417 ], [ 13.39807612623323, 52.148895402724271 ], [ 13.397497498634602, 52.153251126104415 ], [ 13.397149114057457, 52.155873239529171 ], [ 13.396158316016871, 52.159405697947861 ], [ 13.395600219745596, 52.161110356711312 ], [ 13.394029413730825, 52.164731759649065 ], [ 13.37052010350048, 52.164287294465275 ], [ 13.343798961435155, 52.15902544059383 ], [ 13.307577872136234, 52.146810561735933 ], [ 13.30605959826595, 52.140292770105781 ], [ 13.306840392676348, 52.140311492521946 ], [ 13.308496517080352, 52.140454817510864 ], [ 13.317196681488815, 52.141296775600821 ], [ 13.318458855245952, 52.141493711871831 ], [ 13.319588810676303, 52.141693575513834 ], [ 13.314129965763469, 52.138206138303438 ], [ 13.307120826332012, 52.137839512231821 ], [ 13.280481590978686, 52.13333264058592 ], [ 13.273107805740072, 52.140810204436889 ], [ 13.241357357340865, 52.154763940683836 ], [ 13.238868118766007, 52.155744497329991 ], [ 13.238575530770865, 52.156029765656442 ], [ 13.238415735731211, 52.156321170624366 ], [ 13.236565340214156, 52.163542048745214 ], [ 13.244231896813691, 52.166027408306412 ], [ 13.253762080045686, 52.169192647664453 ], [ 13.260769288727856, 52.173154853266183 ], [ 13.270973287977748, 52.182647743089227 ], [ 13.271408664959885, 52.183295160053774 ], [ 13.267286270356522, 52.186840533577048 ], [ 13.26354790276201, 52.18965749754701 ], [ 13.257455397709892, 52.194550122208646 ], [ 13.259352283734707, 52.210454578411017 ], [ 13.266030422576041, 52.222898549999314 ], [ 13.269172014282288, 52.223301662869162 ], [ 13.272297083285485, 52.223706959231663 ], [ 13.273516694637962, 52.224148294249545 ], [ 13.274600801853571, 52.224998445754935 ], [ 13.278010487767697, 52.227672029637098 ], [ 13.290313287258147, 52.237315349454981 ], [ 13.296170250894106, 52.241892401288062 ], [ 13.301927717354332, 52.245752060478686 ], [ 13.308230762538754, 52.249842373730658 ], [ 13.314689727578198, 52.254054903030344 ], [ 13.29124231463827, 52.263606138702087 ], [ 13.289874757260472, 52.263429165171658 ], [ 13.286395657223215, 52.262965485832261 ], [ 13.275083822470545, 52.261493942262206 ], [ 13.265625042578801, 52.260925939167443 ], [ 13.267391285859491, 52.272981347913031 ], [ 13.26796521642467, 52.274975498923801 ], [ 13.273345048024105, 52.287726016383708 ], [ 13.278849560923584, 52.300284582766864 ], [ 13.281764789461711, 52.297638453339182 ], [ 13.284527935132557, 52.296678246637413 ], [ 13.292075731815796, 52.296000082579596 ], [ 13.293896901275719, 52.296841970830364 ], [ 13.295377412388651, 52.298663131207498 ], [ 13.301185207757849, 52.316712039244067 ], [ 13.301203426559049, 52.322254546601059 ], [ 13.297835387646042, 52.327241568220202 ], [ 13.287998153379336, 52.324505793287784 ], [ 13.280324587276784, 52.323629655574287 ], [ 13.27632907607069, 52.327028048374224 ], [ 13.277219412508474, 52.331372716403216 ], [ 13.279005915978193, 52.330939066175674 ], [ 13.280331818648689, 52.330886345752432 ], [ 13.281741391401061, 52.330927014666536 ], [ 13.283276479255342, 52.331107771320404 ], [ 13.284464433988754, 52.331367515468727 ], [ 13.29222298489915, 52.333673759506667 ], [ 13.297133673462323, 52.335355306071023 ], [ 13.302119838154296, 52.339708835476515 ], [ 13.305331444572973, 52.341536781468264 ], [ 13.312495279852216, 52.34283094296876 ], [ 13.314149302403564, 52.341963216620087 ], [ 13.317017293072015, 52.340982747133317 ], [ 13.322056266552174, 52.339259822171904 ], [ 13.340396404966915, 52.333894054780799 ], [ 13.354858430154566, 52.330673075869583 ], [ 13.365568563139776, 52.331386205842151 ], [ 13.367130076937663, 52.334716452164727 ], [ 13.366866572523016, 52.335973170799214 ], [ 13.366051623883045, 52.337152323554633 ], [ 13.364367092795849, 52.338369038430869 ], [ 13.360769965328645, 52.340213621438885 ], [ 13.359267286054267, 52.341021243967681 ], [ 13.356952120367421, 52.342566950143436 ], [ 13.355081720214775, 52.344138627761254 ], [ 13.350315613277592, 52.348420624880099 ], [ 13.349919477340858, 52.349203343662246 ], [ 13.349838611811009, 52.350311941782699 ], [ 13.350189821940868, 52.350987950081084 ], [ 13.368915394227919, 52.372109333845515 ], [ 13.38656298888287, 52.371719521886462 ], [ 13.405564790738, 52.371710145723682 ], [ 13.416589374276985, 52.383776808986788 ], [ 13.430672830708469, 52.385225971274039 ], [ 13.431675386283231, 52.39657688826383 ], [ 13.434070522611172, 52.404143330421768 ], [ 13.455797536117597, 52.403235671918175 ], [ 13.457590632991089, 52.401862231241758 ], [ 13.458266014427755, 52.401306621089361 ], [ 13.457489543375504, 52.387071004095276 ], [ 13.456092531331668, 52.381551356160429 ], [ 13.455708925301744, 52.376620039026591 ], [ 13.456541151219458, 52.373622146986818 ], [ 13.450654725444263, 52.371491214495549 ], [ 13.461353959828335, 52.372313326863754 ], [ 13.477094652599552, 52.369363036646085 ], [ 13.47998807072921, 52.368350357171998 ], [ 13.48471264324497, 52.366601701864944 ], [ 13.492419651932373, 52.367347313766544 ], [ 13.492845543055299, 52.368696107678964 ], [ 13.50059384289621, 52.367298505336564 ], [ 13.505528178685672, 52.367105286385545 ], [ 13.506157782673522, 52.367161817550262 ], [ 13.515341470583603, 52.369909928110744 ], [ 13.515960115263105, 52.370102215742413 ], [ 13.521881055636719, 52.372064701665437 ], [ 13.5226823076245, 52.372355162523085 ], [ 13.524225052800215, 52.373223207663344 ], [ 13.524240341617858, 52.373460941438339 ], [ 13.524136890245329, 52.373677693361891 ], [ 13.522689539211683, 52.374902635121813 ], [ 13.522592187954002, 52.37521447851335 ], [ 13.522607469239013, 52.3754522126182 ], [ 13.542959964428634, 52.391064703863535 ], [ 13.544566744185268, 52.392115072391469 ], [ 13.544944215760818, 52.392232009655615 ], [ 13.545360766369727, 52.392267017658405 ], [ 13.546771964773642, 52.392125185962534 ], [ 13.555229562435413, 52.386351612402741 ], [ 13.572597307066546, 52.379561073275681 ], [ 13.580915113331734, 52.381438233059818 ], [ 13.582010905872995, 52.381906581111402 ], [ 13.589164194743811, 52.393053632886904 ], [ 13.59907303869689, 52.406652787478741 ], [ 13.607743548946654, 52.412866201598476 ], [ 13.623626038994585, 52.418847762641569 ], [ 13.625502056230534, 52.418117640823453 ], [ 13.627022099677648, 52.417383134014869 ], [ 13.624846271433825, 52.415137838672784 ], [ 13.624243378487954, 52.414319315519819 ], [ 13.623876710261614, 52.413518785063452 ], [ 13.623744672249982, 52.412712478703597 ], [ 13.623744672249982, 52.412712478703597 ] ] ] ] } },
{ "type": "Feature", "properties": { "OBJECTID": 8675, "State": "Brandenburg" }, "geometry": { "type": "MultiPolygon", "coordinates": [ [ [ [ 13.962208028722799, 51.788013211745515 ], [ 13.988643503314263, 51.790839417049803 ], [ 14.015777251425067, 51.793783678983445 ], [ 14.022219250040839, 51.791228383190685 ], [ 14.025204422755165, 51.786576067107056 ], [ 14.023391716142489, 51.784224428289299 ], [ 14.030671377385632, 51.772423037626602 ], [ 14.039390251729351, 51.766333313636288 ], [ 14.034488260279218, 51.759227258236521 ], [ 14.03441113253192, 51.757455485241358 ], [ 14.038919379663589, 51.755801971633836 ], [ 14.06380438106584, 51.748240457258717 ], [ 14.075759950073168, 51.746940592315767 ], [ 14.083812539367205, 51.746259756139153 ], [ 14.073808640205881, 51.744889516571725 ], [ 14.06557134689794, 51.74251175139802 ], [ 14.046868959686797, 51.736126975230562 ], [ 14.045905014651233, 51.735524838521279 ], [ 14.044296033080972, 51.706727716258754 ], [ 14.046666813481993, 51.702137501739173 ], [ 14.028667227368537, 51.702618822587979 ], [ 14.001766048832907, 51.704354921747019 ], [ 13.989091168367329, 51.703064088368329 ], [ 13.960540531317585, 51.696571782900364 ], [ 13.945548826635335, 51.696369188015829 ], [ 13.928259782332578, 51.694816041198585 ], [ 13.927812967956003, 51.700186552621354 ], [ 13.92032137866822, 51.70438755837484 ], [ 13.916250446178212, 51.706231402717627 ], [ 13.900340434526337, 51.714576288383675 ], [ 13.897651537819362, 51.720396663182633 ], [ 13.884622646375297, 51.729216604100117 ], [ 13.881274708896855, 51.731237028691027 ], [ 13.877760138224192, 51.732973853752036 ], [ 13.870156719760855, 51.738975347630941 ], [ 13.858775153467464, 51.751365987163489 ], [ 13.857166529086838, 51.757515392212085 ], [ 13.859044808924413, 51.761308167939312 ], [ 13.863419640506418, 51.761141884055569 ], [ 13.86431946407296, 51.76409731870168 ], [ 13.861035124605348, 51.770653389768512 ], [ 13.859313401321749, 51.783081773229583 ], [ 13.860215496747585, 51.787270715493655 ], [ 13.86278260178211, 51.791089370956151 ], [ 13.886606672024362, 51.801357868141928 ], [ 13.888715259802359, 51.800272526044125 ], [ 13.898483812028694, 51.795641267942457 ], [ 13.923395582529812, 51.791294074667434 ], [ 13.930777418951481, 51.796037969631314 ], [ 13.931392326638719, 51.79646179679068 ], [ 13.931678345350694, 51.796777866476134 ], [ 13.931629073845096, 51.798472098821414 ], [ 13.937208236365638, 51.799349664967934 ], [ 13.943043215960111, 51.799850636055673 ], [ 13.944759326977207, 51.799952691969395 ], [ 13.945889413525679, 51.79802654564083 ], [ 13.946193492841077, 51.797446117600934 ], [ 13.946326917841132, 51.796906273347219 ], [ 13.946354353415598, 51.796350791746704 ], [ 13.946655377389497, 51.795364453536671 ], [ 13.946972979698726, 51.794732399541019 ], [ 13.947259204500646, 51.794463133224987 ], [ 13.947962639559725, 51.793920874332024 ], [ 13.952283124996121, 51.791618862649699 ], [ 13.962208028722799, 51.788013211745515 ] ] ] ] } },
{ "type": "Feature", "properties": { "OBJECTID": 9154, "State": "Mecklenburg-Vorpommern" }, "geometry": { "type": "MultiPolygon", "coordinates": [ [ [ [ 12.93766778380038, 53.554749130847853 ], [ 12.943135791139305, 53.548871231357808 ], [ 12.947935898762736, 53.547969174366372 ], [ 12.952909442741145, 53.547034288397327 ], [ 12.959275656345435, 53.547475133445026 ], [ 12.96017693709171, 53.543807816475677 ], [ 12.960282013873977, 53.543248424071699 ], [ 12.958715610029554, 53.536969039216544 ], [ 12.95744693272977, 53.534195009010396 ], [ 12.955240642079003, 53.529369880024497 ], [ 12.9581279172129, 53.528396051268281 ], [ 12.954032877202087, 53.526220518131971 ], [ 12.953033284104473, 53.525700858231914 ], [ 12.949542716712784, 53.524834678804005 ], [ 12.902367736145864, 53.515937415067867 ], [ 12.898201548494185, 53.516817723525001 ], [ 12.886247195052206, 53.519447360564435 ], [ 12.878535547840904, 53.529033137031604 ], [ 12.877779777215107, 53.531870042403774 ], [ 12.883720155547826, 53.544601463168206 ], [ 12.886661177543489, 53.546792355900678 ], [ 12.891862591130183, 53.548975782755114 ], [ 12.89933374935732, 53.552975989365343 ], [ 12.901134020949549, 53.55536827032639 ], [ 12.90462826200269, 53.557655953471013 ], [ 12.906322977772222, 53.558396280743018 ], [ 12.917169882467149, 53.553125802431197 ], [ 12.919663235458852, 53.553490912802978 ], [ 12.919923568621661, 53.555454395318385 ], [ 12.920290476086826, 53.559618040765919 ], [ 12.925152052003122, 53.559282619759081 ], [ 12.927992296119418, 53.558371159110003 ], [ 12.93766778380038, 53.554749130847853 ] ] ] ] } },
{ "type": "Feature", "properties": { "OBJECTID": 9848, "State": "Sachsen" }, "geometry": { "type": "MultiPolygon", "coordinates": [ [ [ [ 13.316604134262358, 50.799906649102063 ], [ 13.319427839807135, 50.797335238613428 ], [ 13.325846344897659, 50.790822876270738 ], [ 13.328497720123204, 50.78660764822137 ], [ 13.329542711182453, 50.784340249921286 ], [ 13.330450221807265, 50.782391323729868 ], [ 13.337267392866858, 50.783639116898676 ], [ 13.337798439606287, 50.784342103877101 ], [ 13.337820219488403, 50.784698925593602 ], [ 13.337719085482384, 50.785014382957193 ], [ 13.338107130745099, 50.785692522585393 ], [ 13.338941531543652, 50.785615255011777 ], [ 13.34392103956073, 50.782207270392846 ], [ 13.349096072332259, 50.776885381155282 ], [ 13.353772278507613, 50.774366764403254 ], [ 13.373056271550615, 50.773748543252388 ], [ 13.389519134479677, 50.773368232317821 ], [ 13.396705397232459, 50.771154696815387 ], [ 13.399647303104194, 50.769433662971601 ], [ 13.40411714465167, 50.765261251443611 ], [ 13.402899899868048, 50.762878409331378 ], [ 13.38560419673378, 50.759441602982179 ], [ 13.392286688167767, 50.74584952362008 ], [ 13.395930397372537, 50.738803008891125 ], [ 13.398158428233639, 50.735253806068521 ], [ 13.399676363118191, 50.733108941027105 ], [ 13.397356508096193, 50.729691009191676 ], [ 13.393600535845867, 50.725606421573808 ], [ 13.389859673298004, 50.724276709455026 ], [ 13.386478514278622, 50.723694328816514 ], [ 13.378224998321205, 50.72280930294361 ], [ 13.368815681096843, 50.722564503327106 ], [ 13.365736106305015, 50.722712444701422 ], [ 13.343476903492954, 50.7170749483913 ], [ 13.340997660452173, 50.716638120283527 ], [ 13.335126499090325, 50.716043033139918 ], [ 13.33318686094867, 50.717143782812435 ], [ 13.331330757855902, 50.718215453323182 ], [ 13.32814902787505, 50.720660945755561 ], [ 13.325338225967835, 50.722187918472649 ], [ 13.310207995718002, 50.726660254182072 ], [ 13.303909163532238, 50.727721635859261 ], [ 13.299207010378653, 50.727879881622243 ], [ 13.297028262748446, 50.72739204031938 ], [ 13.29388945648364, 50.72916920897093 ], [ 13.294310453580113, 50.734048259238691 ], [ 13.298273099727286, 50.736023951543729 ], [ 13.303848995281047, 50.739248232486062 ], [ 13.304261728884887, 50.740426817500754 ], [ 13.306629884906119, 50.754668117942082 ], [ 13.295593650469987, 50.761101383401694 ], [ 13.286131578850688, 50.763182996836768 ], [ 13.279302327343862, 50.765948330993133 ], [ 13.27326141867642, 50.769045622454307 ], [ 13.272846069467743, 50.76996490177342 ], [ 13.280654358535932, 50.787849499937245 ], [ 13.281491233685799, 50.788973013440369 ], [ 13.282918114516216, 50.789713271039126 ], [ 13.283040412091609, 50.790565718062616 ], [ 13.316604134262358, 50.799906649102063 ], [ 13.316604134262358, 50.799906649102063 ] ] ] ] } },
{ "type": "Feature", "properties": { "OBJECTID": 10366, "State": "Sachsen-Anhalt" }, "geometry": { "type": "MultiPolygon", "coordinates": [ [ [ [ 11.651222953516724, 51.77266570434292 ], [ 11.659227076214746, 51.770063710937379 ], [ 11.672237801343559, 51.765077459467918 ], [ 11.675168508468921, 51.758922007431352 ], [ 11.672968978030651, 51.759006842861432 ], [ 11.666026306966049, 51.756115870968856 ], [ 11.664563857251437, 51.741871457000897 ], [ 11.664206014140667, 51.734804008924904 ], [ 11.677079094869315, 51.733317930820093 ], [ 11.684482817200156, 51.730023234700255 ], [ 11.692407786742079, 51.725544289490777 ], [ 11.713363584923837, 51.718106728522208 ], [ 11.716135843571243, 51.717727343695834 ], [ 11.75092110299247, 51.714988843269502 ], [ 11.754760897375897, 51.715820752258814 ], [ 11.752927025550189, 51.70959670382414 ], [ 11.753686285280784, 51.705477265249641 ], [ 11.756424367166352, 51.701300779646985 ], [ 11.768985861007867, 51.696425241304915 ], [ 11.772816750469278, 51.699046965003994 ], [ 11.771280918632954, 51.703966614492337 ], [ 11.778550344488826, 51.70455385168659 ], [ 11.786027893764439, 51.701710700757737 ], [ 11.788665143825115, 51.697174669189629 ], [ 11.788481718975872, 51.694324759032938 ], [ 11.787130119084829, 51.68727718656411 ], [ 11.781648943468173, 51.683075883338169 ], [ 11.7637326137485, 51.684606178682195 ], [ 11.745778968213868, 51.680766662634738 ], [ 11.733610639649759, 51.678132607400364 ], [ 11.716470840186975, 51.667047005178752 ], [ 11.705101436888739, 51.658716030557393 ], [ 11.697006251278074, 51.653562535998027 ], [ 11.693826474012614, 51.653792711030242 ], [ 11.686496187469483, 51.662143508648292 ], [ 11.691057537763959, 51.67012236231524 ], [ 11.683942916243025, 51.67129158903542 ], [ 11.680775674520019, 51.671494284181492 ], [ 11.662707540370034, 51.671754839408891 ], [ 11.6539908670961, 51.667234345905136 ], [ 11.640362299542385, 51.666332422014804 ], [ 11.612427896005082, 51.671205563852141 ], [ 11.61619227706079, 51.683341943369939 ], [ 11.608137554846266, 51.688464839777794 ], [ 11.596406591335477, 51.692173025662818 ], [ 11.596118170146266, 51.695873142795115 ], [ 11.592818643733791, 51.709299048207427 ], [ 11.59439318252379, 51.72612514440425 ], [ 11.593524699922614, 51.750926231054962 ], [ 11.592602338934956, 51.756161427129882 ], [ 11.59107140652196, 51.759162241083686 ], [ 11.593857664582755, 51.761640251693464 ], [ 11.609476222269976, 51.769659046199841 ], [ 11.626664856325844, 51.770014133174513 ], [ 11.651222953516724, 51.77266570434292 ], [ 11.651222953516724, 51.77266570434292 ] ] ] ] } },
{ "type": "Feature", "properties": { "OBJECTID": 10733, "State": "Thüringen" }, "geometry": { "type": "MultiPolygon", "coordinates": [ [ [ [ 10.931081447878535, 50.87258526348662 ], [ 10.930444708874782, 50.868181860143267 ], [ 10.943107058649211, 50.868082682987527 ], [ 10.954013766733318, 50.869400034337914 ], [ 10.955784016824376, 50.862394605442347 ], [ 10.970699025362007, 50.862798452952141 ], [ 10.981245040631588, 50.846513018185036 ], [ 10.981454582657204, 50.844484054302526 ], [ 10.978911898939215, 50.839225631949802 ], [ 10.971971189781842, 50.836404554529793 ], [ 10.963818850215809, 50.83324491096203 ], [ 10.965322770725008, 50.795999192633936 ], [ 10.97829549708929, 50.794371695608767 ], [ 10.974354314102246, 50.788916633211187 ], [ 10.958788579676343, 50.776530488530568 ], [ 10.94478430115317, 50.770517012741813 ], [ 10.925432149112847, 50.761340621191025 ], [ 10.92470163285355, 50.758445409812168 ], [ 10.890419695330145, 50.759776677592463 ], [ 10.873566929447868, 50.774753000018023 ], [ 10.904490457708492, 50.797504011474899 ], [ 10.92201260265694, 50.803746706335829 ], [ 10.922808498088621, 50.805723994210105 ], [ 10.923463431319925, 50.80995105850986 ], [ 10.923749623535144, 50.812262649323017 ], [ 10.922175952569646, 50.823468941972358 ], [ 10.921051950970408, 50.823499003773783 ], [ 10.916328064072678, 50.823592763120956 ], [ 10.893616913237461, 50.828276273900386 ], [ 10.890038380251939, 50.831875149231884 ], [ 10.888043760858364, 50.833877490216764 ], [ 10.881421453450567, 50.838032337742519 ], [ 10.872737232188424, 50.842794418671424 ], [ 10.884603610732249, 50.852497356791979 ], [ 10.886250279765799, 50.85192202966202 ], [ 10.887085510066489, 50.851734315001238 ], [ 10.888215548697357, 50.851702993639812 ], [ 10.899975304375445, 50.852544981198946 ], [ 10.91561225136858, 50.855060932087156 ], [ 10.920741689365457, 50.863601927440428 ], [ 10.9218876975221, 50.868727396300883 ], [ 10.931081447878535, 50.87258526348662 ], [ 10.931081447878535, 50.87258526348662 ] ] ] ] } }
]
}
