dream_id,description,text_dream,Male,Female,Animal,Friends,Family,Dead&Imaginary,Aggression,NegativeEmotions,dream_category,representative
20493,Merri: an artist,,,,,,,,,,2,0
20499,Merri: an artist,,,,,,,,,,4,0
20500,Merri: an artist,"The city was filling up with water. We lived on the 6th floor of a loft under the Manhattan Bridge. Water started trickling over the window sill and the waves rolled over the window. I'd missed kitty. I hadn't heard her for a while. I said, ""Rudy, where's kitty?"" and he said, ""Oh no, I left her in a cage on the bench next to the door."" I reached under water and grabbed the cage. She was barely breathing, but she recovered. The water was getting higher and higher. I ran out the door. I went back to the loft when it was back to OK.",1,0,0.5,0,0.333333333,0,1,1,1,0
20501,Merri: an artist,,,,,,,,,,3,0
20502,Merri: an artist,,,,,,,,,,1,0
20503,Merri: an artist,,,,,,,,,,1,0
20505,Merri: an artist,,,,,,,,,,2,0
20506,Merri: an artist,,,,,,,,,,3,0
20508,Merri: an artist,,,,,,,,,,1,0
20510,Merri: an artist,,,,,,,,,,4,0
20512,Merri: an artist,,,,,,,,,,3,0
20513,Merri: an artist,,,,,,,,,,3,0
20514,Merri: an artist,,,,,,,,,,1,0
20515,Merri: an artist,,,,,,,,,,2,0
20516,Merri: an artist,,,,,,,,,,3,0
20517,Merri: an artist,,,,,,,,,,3,0
20549,Merri: an artist,"I was in <keyword>art school</keyword> and in between classes Mr. Custode was <keyword>drawing from memory</keyword> Jackie - our model. His room where he slept was full of paint and he slept with his door open too. It was too hot not to. He was drawing with <keyword>pencils and chalk</keyword>, and I liked the <keyword>sketch study</keyword> better than the <keyword>finished drawing</keyword>. He had drawn Jackie and her shadow and made numerical notes about the <keyword>proportion of shadows</keyword> in relation to actual size and angle of the sun. Time is only an attempt to name the relationship between revolving and rotation of the sun and planets and our solar system.",0.5,0.5,0,0.5,0,0,0,0,4,1
20519,Merri: an artist,,,,,,,,,,1,0
20520,Merri: an artist,,,,,,,,,,2,0
20529,Merri: an artist,,,,,,,,,,2,0
20532,Merri: an artist,,,,,,,,,,3,0
20535,Merri: an artist,,,,,,,,,,2,0
20536,Merri: an artist,,,,,,,,,,4,0
20543,Merri: an artist,,,,,,,,,,2,0
20545,Merri: an artist,,,,,,,,,,1,0
20547,Merri: an artist,,,,,,,,,,3,0
20555,Merri: an artist,,,,,,,,,,2,0
20556,Merri: an artist,,,,,,,,,,4,0
20558,Merri: an artist,,,,,,,,,,3,0
20561,Merri: an artist,,,,,,,,,,2,0
20565,Merri: an artist,,,,,,,,,,3,0
20567,Merri: an artist,,,,,,,,,,1,0
20569,Merri: an artist,,,,,,,,,,3,0
20575,Merri: an artist,,,,,,,,,,2,0
20579,Merri: an artist,,,,,,,,,,2,0
20581,Merri: an artist,"It was in Ireland hundreds of years ago. There was a couple and they loved each other very much. He had very <keyword> light brown reddish</keyword> hair that was very curly. She had curly hair too. They were shepherds and made their living by making cloth from the wool they wove from the sheep. They <keyword>dyed it in huge pots</keyword> over flames. They wove it into cloth and they sold the cloth. It was <keyword>beautiful</keyword>. The girl even wove some cloth while it was still on the sheep's back. It was a very special sheep. It would stay very warm in winter because the new fur wool would grow under the woven wool that had been woven tight, tight against his skin in the summer. Then the rich people ran them off the land and amputated the man's legs to show them they meant business.",0.75,0.25,0.2,0,0,1,1,1,1,1
20584,Merri: an artist,,,,,,,,,,4,0
20585,Merri: an artist,,,,,,,,,,3,0
20590,Merri: an artist,,,,,,,,,,2,0
20595,Merri: an artist,,,,,,,,,,4,0
20604,Merri: an artist,,,,,,,,,,2,0
20605,Merri: an artist,,,,,,,,,,4,0
20610,Merri: an artist,,,,,,,,,,2,0
20612,Merri: an artist,"I was <keyword>designing</keyword> an annual report, only it was covering many years of my life. The headlines were <keyword>red, blue, and yellow</keyword>  in <keyword>Trade Gothic Bold Italic, 72 pt</keyword>. These tables, <keyword>designed</keyword> beautifully, were about my screw-ups in life. There were many. ",0,0,0,0,0,0,0.25,0.5,3,1
20619,Merri: an artist,,,,,,,,,,2,0
20628,Merri: an artist,,,,,,,,,,4,0
20639,Merri: an artist,,,,,,,,,,4,0
20640,Merri: an artist,,,,,,,,,,1,0
20641,Merri: an artist,,,,,,,,,,1,0
20642,Merri: an artist,,,,,,,,,,2,0
20644,Merri: an artist,,,,,,,,,,4,0
20646,Merri: an artist,,,,,,,,,,2,0
20648,Merri: an artist,,,,,,,,,,1,0
20650,Merri: an artist,,,,,,,,,,2,0
20655,Merri: an artist,"I was working on an <keyword>art project</keyword> during daytime. We had a conveyor belt darkroom set up, but first I had been <keyword>rubbing wet paper</keyword> on a cocoa metal box to lift a transfer copy of the letters from. By the time I finished the first one it was already midnight. The <keyword>art stores</keyword> were closed. A crazy retarded lady from the building nearby had been ranting and raving in the middle of the street in the busy part of the city. The cops brought her - since the lady was going to sleep, unaware of the <keyword>art supplies</keyword> she wasn't using. ",0.66,0.33,0,0,0,0,1,1,2,1
20657,Merri: an artist,,,,,,,,,,2,0
20660,Merri: an artist,,,,,,,,,,4,0
20664,Merri: an artist,,,,,,,,,,2,0
20668,Merri: an artist,,,,,,,,,,4,0
20669,Merri: an artist,,,,,,,,,,4,0
20670,Merri: an artist,,,,,,,,,,1,0
20672,Merri: an artist,,,,,,,,,,1,0
20674,Merri: an artist,,,,,,,,,,4,0
20707,Merri: an artist,"Me and William both won a weekend at the special program house for <keyword>gifted and talented students</keyword>. Conversation with other students that thrilled and challenged my mind. Mostly I'd been talking about my dreams and <keyword>drawing pictures</keyword> of them with a <keyword>black magic marker</keyword> on sheets of the day's newspaper. They were making good sense. <keyword>Fine artists</keyword> began becoming more conceptual. <keyword>Conceptual artists</keyword> were starting to  <keyword>paint</keyword>. William had gone around his hairline with a very thick black magic marker to get some <keyword>painters</keyword>thinking. But then the painters shaved his head. It was all stubbly like a baby chicken's head! I still didn't know which category I belonged in, the thinkers or the <keyword>painters</keyword>. My aunts had come to see what this gifted program I was in, near their land, was. They were obnoxious and loud. ",0.2,0,0,0.4,0.4,0,0.666666667,0.5,2,1
20681,Merri: an artist,,,,,,,,,,2,0
20683,Merri: an artist,,,,,,,,,,4,0
20685,Merri: an artist,,,,,,,,,,1,0
20688,Merri: an artist,,,,,,,,,,4,0
20693,Merri: an artist,,,,,,,,,,2,0
20695,Merri: an artist,,,,,,,,,,2,0
20696,Merri: an artist,,,,,,,,,,4,0
20698,Merri: an artist,,,,,,,,,,3,0
20700,Merri: an artist,,,,,,,,,,4,0
20705,Merri: an artist,,,,,,,,,,3,0
20709,Merri: an artist,,,,,,,,,,2,0
20713,Merri: an artist,,,,,,,,,,4,0
20714,Merri: an artist,,,,,,,,,,4,0
20715,Merri: an artist,,,,,,,,,,4,0
20728,Merri: an artist,"I was looking at a <keyword>stack of maps</keyword>. I was shocked to find South Africa, Ireland and France adjacent. The <keyword>maps</keyword> folded out in accordion folds and you could piece the world together. I unfolded the United States and looked at South Carolina. It was not a map divided into counties, but showing rivers, streams and lakes. All the names they put on the rivers were wrong! They put a huge lake in near the middle of the state and just called it ""Fishing Lake."" They also put a big straight river, about an inch wide on the map, which would indicate 200 miles wide. They called it ""Fishing River"" and it started from nowhere with a waterfall. At least the shape of the state was right. I'd been looking for <keyword>comic books</keyword> anyway - not maps. ",0,0,0,0,0,0,0.2,0,3,1
20715,Merri: an artist,,,,,,,,,,4,0
20718,Merri: an artist,,,,,,,,,,3,0
20720,Merri: an artist,,,,,,,,,,4,0
20725,Merri: an artist,,,,,,,,,,4,0
20729,Merri: an artist,,,,,,,,,,2,0
20732,Merri: an artist,,,,,,,,,,2,0
20733,Merri: an artist,,,,,,,,,,3,0
20736,Merri: an artist,,,,,,,,,,2,0
20740,Merri: an artist,,,,,,,,,,2,0
20744,Merri: an artist,,,,,,,,,,2,0
20746,Merri: an artist,,,,,,,,,,2,0
20747,Merri: an artist,,,,,,,,,,4,0
20748,Merri: an artist,,,,,,,,,,2,0
20751,Merri: an artist,,,,,,,,,,3,0
20752,Merri: an artist,,,,,,,,,,4,0
20753,Merri: an artist,,,,,,,,,,2,0
20754,Merri: an artist,,,,,,,,,,1,0
20755,Merri: an artist,,,,,,,,,,3,0
20756,Merri: an artist,,,,,,,,,,4,0
20757,Merri: an artist,,,,,,,,,,2,0
20760,Merri: an artist,"Me and Corinne were in the <keyword>church</keyword>. There were younger students passing through - just past adolescent girls, having a pajama party. They had lots of things to carry!",0,0.33,0,0.33,0,0.66,0,0,4,0
20761,Merri: an artist,,,,,,,,,,4,0
20767,Merri: an artist,,,,,,,,,,2,0
20768,Merri: an artist,,,,,,,,,,4,0
20772,Merri: an artist,,,,,,,,,,4,0
20774,Merri: an artist,,,,,,,,,,4,0
20775,Merri: an artist,,,,,,,,,,2,0
20777,Merri: an artist,,,,,,,,,,2,0
20779,Merri: an artist,,,,,,,,,,3,0
20798,Merri: an artist,I was working with Geraldo. First we had some work to do under water. Then I was doing <keyword>design work</keyword> for both our writing. When I finished I was <keyword>typing and designing</keyword> what I thought was his resume. I would do it in <keyword>Trade Gothic Bold Condensed</keyword>.  But it was in Portuguese! I realized it would take longer to type and proofread in a foreign language. ,0.666666667,0,0,0.333333333,0,0,0,0,4,1
20780,Merri: an artist,,,,,,,,,,2,0
20783,Merri: an artist,,,,,,,,,,2,0
20785,Merri: an artist,,,,,,,,,,4,0
20788,Merri: an artist,,,,,,,,,,2,0
20790,Merri: an artist,,,,,,,,,,2,0
20795,Merri: an artist,,,,,,,,,,1,0
20796,Merri: an artist,,,,,,,,,,4,0
20799,Merri: an artist,,,,,,,,,,4,0
20802,Merri: an artist,,,,,,,,,,4,0
