dream_id,description,text_dream,Male,Female,Animal,Familiarity,Friends,Family,Dead&Imaginary,Aggression,NegativeEmotions,dream_category,representative
6042,Chris: a businessman,,,,,,,,,,,4,0
6043,Chris: a businessman,,,,,,,,,,,3,0
6044,Chris: a businessman,,,,,,,,,,,4,0
6046,Chris: a businessman,,,,,,,,,,,4,0
6047,Chris: a businessman,,,,,,,,,,,2,0
6049,Chris: a businessman,,,,,,,,,,,4,0
6050,Chris: a businessman,,,,,,,,,,,4,0
6051,Chris: a businessman,I walk into a supermarket and am <keyword>wearing women's flat shoes</keyword> and aware of the noise they are making on the hard floor and it embarrasses me that this calls attention to me. I note several women standing nearby watching me and looking at my feet. A bit beyond them I continue shopping very busily and wonder if it would be best to just continue on and all the way around the store to the exit or return and go past these same women. Later have gone up some stairs and first person I see is one of the same women. ,0,1,0,0.5,0,0,0,0.25,1,2,1
6052,Chris: a businessman,,,,,,,,,,,1,0
6053,Chris: a businessman,,,,,,,,,,,4,0
6054,Chris: a businessman,,,,,,,,,,,3,0
6056,Chris: a businessman,,,,,,,,,,,4,0
6057,Chris: a businessman,,,,,,,,,,,4,0
6058,Chris: a businessman,,,,,,,,,,,2,0
6059,Chris: a businessman,,,,,,,,,,,4,0
6060,Chris: a businessman,,,,,,,,,,,4,0
6061,Chris: a businessman,,,,,,,,,,,4,0
6062,Chris: a businessman,,,,,,,,,,,2,0
6063,Chris: a businessman,,,,,,,,,,,4,0
6064,Chris: a businessman,"Am on a train or ship and asleep in a large leather chair. Awake and walk down an aisle which later seems like the aisle of an European style train and the train has stopped and people are walking along aisle to exit. Most are wearing winter furs. I realize I am <keyword>naked</keyword>, but wrapped in a fur auto robe. Look down and see I have on <keyword>brown women's high heeled shoes</keyword>. Am shocked at this and afraid that some passenger might notice as we all walk down aisle.",0,0,0,0.333333333,0,0,1,0.25,1,2,1
6065,Chris: a businessman,,,,,,,,,,,4,0
6066,Chris: a businessman,,,,,,,,,,,4,0
6067,Chris: a businessman,,,,,,,,,,,1,0
6068,Chris: a businessman,,,,,,,,,,,4,0
6069,Chris: a businessman,,,,,,,,,,,4,0
6070,Chris: a businessman,,,,,,,,,,,4,0
6071,Chris: a businessman,,,,,,,,,,,2,0
6072,Chris: a businessman,,,,,,,,,,,4,0
6073,Chris: a businessman,,,,,,,,,,,3,0
6074,Chris: a businessman,I am in Paris and strolling around looking for familiar streets. Recognize as few as well as some shops I know. Then I feel I <keyword>should be doing something more worthwhile with my time</keyword> and remember there is an Alexander Calder exhibition at the edge of the city. Go there and see some 60 pieces of large sculpture standing against the walls of a chateau. I think to myself how nice it would be if <keyword>my wife</keyword> were there to see this tremendous exhibition.,0.5,0.5,0,0.25,0,1,0,0,0,4,1
6075,Chris: a businessman,,,,,,,,,,,4,0
6076,Chris: a businessman,,,,,,,,,,,3,0
6077,Chris: a businessman,,,,,,,,,,,3,0
6078,Chris: a businessman,,,,,,,,,,,1,0
6079,Chris: a businessman,,,,,,,,,,,4,0
6080,Chris: a businessman,,,,,,,,,,,4,0
6081,Chris: a businessman,,,,,,,,,,,1,0
6082,Chris: a businessman,,,,,,,,,,,4,0
6083,Chris: a businessman,,,,,,,,,,,3,0
6084,Chris: a businessman,,,,,,,,,,,3,0
6085,Chris: a businessman,,,,,,,,,,,4,0
6086,Chris: a businessman,,,,,,,,,,,3,0
6087,Chris: a businessman,,,,,,,,,,,3,0
6088,Chris: a businessman,,,,,,,,,,,4,0
6089,Chris: a businessman,,,,,,,,,,,4,0
6090,Chris: a businessman,,,,,,,,,,,1,0
6091,Chris: a businessman,,,,,,,,,,,2,0
6092,Chris: a businessman,,,,,,,,,,,2,0
6093,Chris: a businessman,,,,,,,,,,,4,0
6094,Chris: a businessman,,,,,,,,,,,2,0
6095,Chris: a businessman,"Am sitting on a curb in front of my car. A man approaches walking softly alongside car. He stops in front of me and I look up and realize he is <keyword>threatening me</keyword> with hand in jacket pocket which appears to hold a gun. I then realize <keyword>I have seen him before</keyword> and with another man. As I realize this, I stand up and am immediately aware of that other man now standing behind me, also threatening with hand in pocket. I walk away and then they follow closely behind. I turn quickly and grab both their pockets, one with each hand and twist them away so they cannot shoot at me.",1,0,0,1,0,0,0,1,1,1,1
6096,Chris: a businessman,,,,,,,,,,,2,0
6097,Chris: a businessman,,,,,,,,,,,4,0
6098,Chris: a businessman,,,,,,,,,,,4,0
6099,Chris: a businessman,,,,,,,,,,,4,0
6100,Chris: a businessman,,,,,,,,,,,4,0
6101,Chris: a businessman,"Three of us, two men and myself, are sitting in a library. Guy on my left is eating chocolate-covered wafers. He goes to a shelf and puts one down, with a look at the third man, sitting to my right and across. I immediately get up and walk over to shelf where he put the wafer. I eat a mouthful with a look of assurance at the third man. I smile assuredness that I will leave some for him. I munch less than half the wafer and then walk over and hand the remaining pieces to him.",1,0,0,0,0,0,0,0,0,3,0
6102,Chris: a businessman,,,,,,,,,,,4,0
6103,Chris: a businessman,,,,,,,,,,,3,0
6104,Chris: a businessman,,,,,,,,,,,4,0
6105,Chris: a businessman,,,,,,,,,,,2,0
6106,Chris: a businessman,,,,,,,,,,,2,0
6107,Chris: a businessman,"Am sleeping in an <keyword>Army barracks</keyword>. Something has disturbed a guy at other end of room and it wakes me up. Room is full of men in <keyword>bunks</keyword>. The disturbed guy throws a pillow at me all the way to my end of room. I catch and <keyword>shout</keyword> to him that I have better things to do than mess with him. He walks towards my bunk and I just lie there and hold pillow. As he gets nearer I throw the pillow at him. He ignores, turns and goes back to his bunk.",1,0,0,0.5,0,0,0,1,1,1,1
6108,Chris: a businessman,,,,,,,,,,,2,0
6109,Chris: a businessman,,,,,,,,,,,3,0
6110,Chris: a businessman,,,,,,,,,,,4,0
6111,Chris: a businessman,,,,,,,,,,,1,0
6112,Chris: a businessman,,,,,,,,,,,4,0
6113,Chris: a businessman,,,,,,,,,,,2,0
6114,Chris: a businessman,,,,,,,,,,,4,0
6115,Chris: a businessman,,,,,,,,,,,3,0
6116,Chris: a businessman,,,,,,,,,,,2,0
6118,Chris: a businessman,,,,,,,,,,,4,0
6119,Chris: a businessman,,,,,,,,,,,4,0
6120,Chris: a businessman,,,,,,,,,,,2,0
6121,Chris: a businessman,,,,,,,,,,,4,0
6122,Chris: a businessman,,,,,,,,,,,4,0
6123,Chris: a businessman,,,,,,,,,,,1,0
6124,Chris: a businessman,,,,,,,,,,,1,0
6125,Chris: a businessman,,,,,,,,,,,4,0
6126,Chris: a businessman,,,,,,,,,,,4,0
6127,Chris: a businessman,,,,,,,,,,,2,0
6128,Chris: a businessman,,,,,,,,,,,3,0
6129,Chris: a businessman,,,,,,,,,,,3,0
6130,Chris: a businessman,,,,,,,,,,,4,0
6131,Chris: a businessman,,,,,,,,,,,2,0
6132,Chris: a businessman,,,,,,,,,,,2,0
6117,Chris: a businessman,"I am in a school class where they teach boating. Class is all girls and I am sitting at a desk <keyword>dressed as a girl</keyword>. No one seems to notice me or suspect I am not what I seem. Yet <keyword>I want them to know</keyword>. Most all are wearing slacks or shorts, but I have a skirt. Then each goes out in her own small sailboat to practice. Alone in my own boat and moving along, and now I realize that at this distance - and especially with a skirt on - no one would possibly suspect I am a boy.",0,1,0,0.2,0.166666667,0,0,0,0,3,1
6133,Chris: a businessman,,,,,,,,,,,4,0
6134,Chris: a businessman,,,,,,,,,,,4,0
6135,Chris: a businessman,,,,,,,,,,,4,0
6136,Chris: a businessman,,,,,,,,,,,4,0
6138,Chris: a businessman,,,,,,,,,,,3,0
6139,Chris: a businessman,,,,,,,,,,,4,0
6140,Chris: a businessman,,,,,,,,,,,4,0
6141,Chris: a businessman,"Am in the UN building and I see an inside window display or type of showcase in which there is a card saying something about an exhibit on mankind. Focal point is a <keyword>tall male mannequin</keyword> dressed in mod clothes: tight gray trousers and shiny long leather boots. The model is exact <keyword>copy of myself</keyword> and I realize this was done on purpose. Sort of growing out of one part of the dummy is another head, closely resembling me also. But it is decidedly a <keyword>feminine head</keyword>. Exhibit includes statuary of some modern shape, plus photos that I cannot distinguish. A woman approaches me as I am looking at exhibit. She is somewhat mannish, but otherwise attractive, and she says she is Madame Onantis, the photographer of the exhibit. I tell her how much I like her work and then we walk out of building. ",0.5,0.5,0,0.25,0,0,1,0,0,4,1
