﻿city,sortedID,lu_class,width,story,path,,,
Florence,1,Forest,17%,… one sentence story comes here.,img/dna/florence-forests.jpg,,,
Florence,2,Orchards,8%,… one sentence story comes here.,img/dna/florence-orchards.jpg,,,
Florence,3,Farmland,16%,… one sentence story comes here.,img/dna/florence-farmlands.jpg,,,
Florence,4,Industrial zones ,16%,… one sentence story comes here.,img/dna/florence-industrial.jpg,,,
Florence,5,Roads and transport,19%,… one sentence story comes here.,img/dna/florence-roads.jpg,,,
Florence,6,Residential areas,24%,… one sentence story comes here.,img/dna/florence-residential.jpg,,,
Rome,1,Forest,10%,… one sentence story comes here.,img/dna/placeholder.jpg,,,
Rome,2,Urban green spaces,20%,… one sentence story comes here.,img/dna/placeholder.jpg,,,
Rome,3,Urban green spaces,10%,… one sentence story comes here.,img/dna/placeholder.jpg,,,
Rome,4,Residential areas,10%,… one sentence story comes here.,img/dna/placeholder.jpg,,,
Rome,5,Transport,20%,… one sentence story comes here.,img/dna/placeholder.jpg,,,
Rome,6,Residential areas,20%,… one sentence story comes here.,img/dna/placeholder.jpg,,,
Bologna,1,Industrial zones,25%,… one sentence story comes here.,img/dna/placeholder.jpg,,,100%
Bologna,2,Forest,10%,Prati di Caprara is an urban forest located near the city center. ,img/dna/bologna-forest.jpg,,,
Bologna,3,Urban green spaces,10%,Bologna is surrounded by a green belt of parks.,img/dna/bologna-Urban green spaces2.jpg,,,
Bologna,4,Roads and transport,20%,… one sentence story comes here.,img/dna/placeholder.jpg,,,
Bologna,5,Residential areas,35%,… one sentence story comes here.,img/dna/placeholder.jpg,,,
Torino,1,Forest,30%,… one sentence story comes here.,img/dna/placeholder.jpg,,,
Torino,2,Urban green spaces,30%,… one sentence story comes here.,img/dna/placeholder.jpg,,,
Torino,3,Industrial zones,30%,… one sentence story comes here.,img/dna/placeholder.jpg,,,
Torino,4,Transport,10%,… one sentence story comes here.,img/dna/placeholder.jpg,,,
Torino,5,Residential areas,20%,… one sentence story comes here.,img/dna/placeholder.jpg,,,
Palermo,1,Forest,30%,… one sentence story comes here.,img/dna/placeholder.jpg,,,
Palermo,2,Farmland,30%,… one sentence story comes here.,img/dna/placeholder.jpg,,,
Palermo,3,Roads and transport,30%,… one sentence story comes here.,img/dna/placeholder.jpg,,,
Palermo,5,Residential areas,30%,… one sentence story comes here.,img/dna/placeholder.jpg,,,
Milan,1,Water,30%,… one sentence story comes here.,img/dna/placeholder.jpg,,,
Milan,2,Industrial zones,30%,… one sentence story comes here.,img/dna/placeholder.jpg,,,
Milan,3,Urban green spaces,30%,… one sentence story comes here.,img/dna/placeholder.jpg,,,
Milan,4,Transport,10%,… one sentence story comes here.,img/dna/placeholder.jpg,,,
Milan,5,Residential areas,20%,… one sentence story comes here.,img/dna/placeholder.jpg,,,
