var labels_m = {
"type": "FeatureCollection",
"name": "Labels_m",
"crs": { "type": "name", "properties": { "name": "urn:ogc:def:crs:EPSG::25832" } },
"features": [
{ "type": "Feature", "properties": { "GEN": "Schleswig-Holstein", "BEZ": "Land", "State": "Schleswig-Holstein" }, "geometry": { "type": "Point", "coordinates": [ 546678.591627510497347, 6001615.552079881541431 ] } },
{ "type": "Feature", "properties": { "GEN": "Hamburg", "BEZ": "Freie und Hansestadt", "State": "Hamburg" }, "geometry": { "type": "Point", "coordinates": [ 567310.442179692909122, 5933675.480116025544703 ] } },
{ "type": "Feature", "properties": { "GEN": "Niedersachsen", "BEZ": "Land", "State": "Niedersachsen" }, "geometry": { "type": "Point", "coordinates": [ 565526.41398662107531, 5816199.463432199321687 ] } },
{ "type": "Feature", "properties": { "GEN": "Bremen", "BEZ": "Freie Hansestadt", "State": "Bremen" }, "geometry": { "type": "Point", "coordinates": [ 487329.879774173779879, 5882348.920650682412088 ] } },
{ "type": "Feature", "properties": { "GEN": "Nordrhein-Westfalen", "BEZ": "Land", "State": "Nordrhein-Westfalen" }, "geometry": { "type": "Point", "coordinates": [ 399578.422992510080803, 5703959.729763830080628 ] } },
{ "type": "Feature", "properties": { "GEN": "Hessen", "BEZ": "Land", "State": "Hessen" }, "geometry": { "type": "Point", "coordinates": [ 501846.283342982002068, 5605262.736572953872383 ] } },
{ "type": "Feature", "properties": { "GEN": "Rheinland-Pfalz", "BEZ": "Land", "State": "Rheinland-Pfalz" }, "geometry": { "type": "Point", "coordinates": [ 388849.789995441387873, 5529902.216307573951781 ] } },
{ "type": "Feature", "properties": { "GEN": "Baden-Württemberg", "BEZ": "Land", "State": "Baden-Württemberg" }, "geometry": { "type": "Point", "coordinates": [ 503073.016696245642379, 5376505.910328303463757 ] } },
{ "type": "Feature", "properties": { "GEN": "Bayern", "BEZ": "Freistaat", "State": "Bayern" }, "geometry": { "type": "Point", "coordinates": [ 677821.637697018566541, 5423448.202431856654584 ] } },
{ "type": "Feature", "properties": { "GEN": "Saarland", "BEZ": "Land", "State": "Saarland" }, "geometry": { "type": "Point", "coordinates": [ 351466.833905780978967, 5472192.021923989988863 ] } },
{ "type": "Feature", "properties": { "GEN": "Berlin", "BEZ": "Land", "State": "Berlin" }, "geometry": { "type": "Point", "coordinates": [ 798734.831255073891953, 5825933.231726637110114 ] } },
{ "type": "Feature", "properties": { "GEN": "Brandenburg", "BEZ": "Land", "State": "Brandenburg" }, "geometry": { "type": "Point", "coordinates": [ 834313.003716837614775, 5762396.285789459012449 ] } },
{ "type": "Feature", "properties": { "GEN": "Mecklenburg-Vorpommern", "BEZ": "Land", "State": "Mecklenburg-Vorpommern" }, "geometry": { "type": "Point", "coordinates": [ 733545.947242003399879, 5962205.664211795665324 ] } },
{ "type": "Feature", "properties": { "GEN": "Sachsen", "BEZ": "Freistaat", "State": "Sachsen" }, "geometry": { "type": "Point", "coordinates": [ 804515.72977029136382, 5664712.79312277585268 ] } },
{ "type": "Feature", "properties": { "GEN": "Sachsen-Anhalt", "BEZ": "Land", "State": "Sachsen-Anhalt" }, "geometry": { "type": "Point", "coordinates": [ 685498.600246530142613, 5765493.650542153045535 ] } },
{ "type": "Feature", "properties": { "GEN": "Thüringen", "BEZ": "Freistaat", "State": "Thüringen" }, "geometry": { "type": "Point", "coordinates": [ 642504.954456018400379, 5641040.190610966645181 ] } }
]
}
